"TEi.id1","TEi.id2","ConsolidateDuplicateTEi","nearby_TEis_ref_ref","ConsolidateDuplicateTEi_sdp_mismatch","nearby_TEis_ref_strand_mismatch_FPMV","nearby_TEis_ref_10_300_FPMV"
6,20000,"TRUE",,,,
137,20177,"TRUE",,,,
258,20341,"TRUE",,,,
364,20518,"TRUE",,,,
385,20560,"TRUE",,,,
400,20576,"TRUE",,,,
20621,432,"TRUE",,,,
20672,457,"TRUE",,,,
20690,20691,"TRUE",,,,
500,20735,"TRUE",,,,
553,20808,"TRUE",,,,
589,20872,"TRUE",,,,
635,20933,"TRUE",,,,
657,20969,"TRUE",,,,
662,20973,"TRUE",,,,
21008,690,"TRUE",,,,
719,21042,"TRUE",,,,
742,21070,"TRUE",,,,
771,21102,"TRUE",,,,
791,21134,"TRUE",,,,
21271,886,"TRUE",,,,
21315,932,"TRUE",,,,
21380,21381,"TRUE",,,,
21408,1016,"TRUE",,,,
21416,1023,"TRUE",,,,
1054,21462,"TRUE",,,,
1118,21587,"TRUE",,,,
1312,21850,"TRUE",,,,
1322,21864,"TRUE",,,,
1380,21968,"TRUE",,,,
21981,21982,"TRUE",,,,
1556,22231,"TRUE",,,,
1564,22239,"TRUE",,,,
1603,22309,"TRUE",,,,
1631,46564,"TRUE",,,,
1638,22351,"TRUE",,,,
1719,22450,"TRUE",,,,
1743,22494,"TRUE",,,,
1795,22563,"TRUE",,,,
1845,22626,"TRUE",,,,
22640,1857,"TRUE",,,,
1896,22664,"TRUE",,,,
22673,1904,"TRUE",,,,
2003,22830,"TRUE",,,,
2079,22950,"TRUE",,,,
2082,22954,"TRUE",,,,
2140,23029,"TRUE",,,,
2244,23196,"TRUE",,,,
2253,23208,"TRUE",,,,
23329,2332,"TRUE",,,,
2393,23400,"TRUE",,,,
23519,2462,"TRUE",,,,
2475,23552,"TRUE",,,,
23577,2493,"TRUE",,,,
2557,23670,"TRUE",,,,
2594,23699,"TRUE",,,,
2604,23720,"TRUE",,,,
2613,23749,"TRUE",,,,
2672,23816,"TRUE",,,,
23826,2683,"TRUE",,,,
2690,23836,"TRUE",,,,
2719,23877,"TRUE",,,,
2740,23905,"TRUE",,,,
2821,24022,"TRUE",,,,
2939,24200,"TRUE",,,,
24281,24282,"TRUE",,,,
3029,24326,"TRUE",,,,
3053,24360,"TRUE",,,,
3094,24389,"TRUE",,,,
24394,3100,"TRUE",,,,
24504,3168,"TRUE",,,,
3179,24520,"TRUE",,,,
3225,24584,"TRUE",,,,
3325,24699,"TRUE",,,,
24702,24703,"TRUE",,,,
3331,24715,"TRUE",,,,
24789,24790,"TRUE",,,,
3391,24803,"TRUE",,,,
24834,3408,"TRUE",,,,
3413,24854,"TRUE",,,,
3424,24867,"TRUE",,,,
24886,3428,"TRUE",,,,
24926,3454,"TRUE",,,,
3475,24968,"TRUE",,,,
3545,25091,"TRUE",,,,
25186,3596,"TRUE",,,,
3624,25220,"TRUE",,,,
25458,3796,"TRUE",,,,
3807,25475,"TRUE",,,,
3817,25486,"TRUE",,,,
3846,25519,"TRUE",,,,
3880,25571,"TRUE",,,,
25768,4010,"TRUE",,,,
4029,25791,"TRUE",,,,
4102,25927,"TRUE",,,,
25988,4162,"TRUE",,,,
4194,26016,"TRUE",,,,
4245,26064,"TRUE",,,,
26108,26109,"TRUE",,,,
4300,26153,"TRUE",,,,
26179,4321,"TRUE",,,,
26240,4398,"TRUE",,,,
26278,4423,"TRUE",,,,
4449,26317,"TRUE",,,,
26462,26463,"TRUE",,,,
4551,26464,"TRUE",,,,
4566,26493,"TRUE",,,,
4573,26516,"TRUE",,,,
4632,26630,"TRUE",,,,
26729,4700,"TRUE",,,,
26735,4703,"TRUE",,,,
26741,4707,"TRUE",,,,
4709,26742,"TRUE",,,,
26763,4725,"TRUE",,,,
26800,26801,"TRUE",,,,
4756,26834,"TRUE",,,,
4772,26880,"TRUE",,,,
4811,26939,"TRUE",,,,
4964,27112,"TRUE",,,,
4966,27118,"TRUE",,,,
5036,27196,"TRUE",,,,
27258,27259,"TRUE",,,,
5119,27302,"TRUE",,,,
5131,27327,"TRUE",,,,
5187,27383,"TRUE",,,,
5198,27394,"TRUE",,,,
5314,27563,"TRUE",,,,
5362,27654,"TRUE",,,,
27713,5399,"TRUE",,,,
5401,27714,"TRUE",,,,
5471,27784,"TRUE",,,,
5515,27867,"TRUE",,,,
27904,5534,"TRUE",,,,
5627,28041,"TRUE",,,,
28052,28053,"TRUE",,,,
5685,28124,"TRUE",,,,
5713,28153,"TRUE",,,,
5765,28204,"TRUE",,,,
5821,28276,"TRUE",,,,
5836,28300,"TRUE",,,,
28353,5880,"TRUE",,,,
5913,28385,"TRUE",,,,
5946,28412,"TRUE",,,,
28436,5982,"TRUE",,,,
5993,28462,"TRUE",,,,
6042,28523,"TRUE",,,,
6051,28542,"TRUE",,,,
6088,28601,"TRUE",,,,
6089,28603,"TRUE",,,,
6145,28756,"TRUE",,,,
28933,6270,"TRUE",,,,
6294,28992,"TRUE",,,,
28998,6299,"TRUE",,,,
6359,29100,"TRUE",,,,
29344,6510,"TRUE",,,,
6512,29348,"TRUE",,,,
6514,29351,"TRUE",,,,
6535,29385,"TRUE",,,,
6555,29433,"TRUE",,,,
6569,29446,"TRUE",,,,
6620,29537,"TRUE",,,,
6629,46542,"TRUE",,,,
6661,29596,"TRUE",,,,
6704,29682,"TRUE",,,,
6721,29713,"TRUE",,,,
6762,29779,"TRUE",,,,
29809,6782,"TRUE",,,,
6819,29886,"TRUE",,,,
6918,30000,"TRUE",,,,
7081,30216,"TRUE",,,,
7104,30246,"TRUE",,,,
7219,30388,"TRUE",,,,
7233,30393,"TRUE",,,,
7252,30415,"TRUE",,,,
30476,7300,"TRUE",,,,
7331,30521,"TRUE",,,,
7356,30539,"TRUE",,,,
7387,30564,"TRUE",,,,
7388,30569,"TRUE",,,,
7389,30575,"TRUE",,,,
30612,7405,"TRUE",,,,
7423,30639,"TRUE",,,,
7424,30641,"TRUE",,,,
7425,30643,"TRUE",,,,
30765,7498,"TRUE",,,,
30821,7529,"TRUE",,,,
30825,30826,"TRUE",,,,
30921,30922,"TRUE",,,,
7606,30938,"TRUE",,,,
7608,30940,"TRUE",,,,
7612,30947,"TRUE",,,,
7673,31020,"TRUE",,,,
7690,31042,"TRUE",,,,
7696,31047,"TRUE",,,,
7755,31111,"TRUE",,,,
7803,31157,"TRUE",,,,
7821,31174,"TRUE",,,,
7835,31190,"TRUE",,,,
31587,8164,"TRUE",,,,
8203,31631,"TRUE",,,,
8205,31632,"TRUE",,,,
31641,31642,"TRUE",,,,
31681,8253,"TRUE",,,,
8320,31751,"TRUE",,,,
8437,31933,"TRUE",,,,
8481,32034,"TRUE",,,,
8574,32172,"TRUE",,,,
8636,32287,"TRUE",,,,
8649,32301,"TRUE",,,,
32376,8706,"TRUE",,,,
32443,8738,"TRUE",,,,
32491,32492,"TRUE",,,,
8788,32548,"TRUE",,,,
8791,32550,"TRUE",,,,
32572,8803,"TRUE",,,,
8837,32629,"TRUE",,,,
8910,32738,"TRUE",,,,
32770,32771,"TRUE",,,,
8995,32837,"TRUE",,,,
9000,32847,"TRUE",,,,
9013,32867,"TRUE",,,,
9026,32905,"TRUE",,,,
9042,32934,"TRUE",,,,
33082,33083,"TRUE",,,,
33282,9229,"TRUE",,,,
9326,33437,"TRUE",,,,
9330,33443,"TRUE",,,,
9356,33491,"TRUE",,,,
33504,9364,"TRUE",,,,
33542,9393,"TRUE",,,,
33621,9438,"TRUE",,,,
33668,9470,"TRUE",,,,
9489,33708,"TRUE",,,,
9493,33724,"TRUE",,,,
9578,33852,"TRUE",,,,
9583,33872,"TRUE",,,,
33941,9616,"TRUE",,,,
9704,34075,"TRUE",,,,
34134,34135,"TRUE",,,,
9752,34146,"TRUE",,,,
9778,34202,"TRUE",,,,
9945,34388,"TRUE",,,,
9981,34436,"TRUE",,,,
9990,34454,"TRUE",,,,
10067,34546,"TRUE",,,,
10108,34616,"TRUE",,,,
10154,34694,"TRUE",,,,
34742,10183,"TRUE",,,,
10196,34766,"TRUE",,,,
10208,34778,"TRUE",,,,
10224,34793,"TRUE",,,,
34822,34823,"TRUE",,,,
10269,34855,"TRUE",,,,
34865,10284,"TRUE",,,,
10353,34935,"TRUE",,,,
10361,34945,"TRUE",,,,
35219,35220,"TRUE",,,,
10614,35277,"TRUE",,,,
35297,10626,"TRUE",,,,
10677,35362,"TRUE",,,,
10686,35381,"TRUE",,,,
35393,35394,"TRUE",,,,
35486,35487,"TRUE",,,,
10743,35498,"TRUE",,,,
10891,35747,"TRUE",,,,
10962,35865,"TRUE",,,,
10996,35918,"TRUE",,,,
35960,11011,"TRUE",,,,
36045,36046,"TRUE",,,,
36084,11118,"TRUE",,,,
11211,36191,"TRUE",,,,
11303,36340,"TRUE",,,,
11523,36597,"TRUE",,,,
11530,36604,"TRUE",,,,
11538,36623,"TRUE",,,,
36640,11560,"TRUE",,,,
11571,36657,"TRUE",,,,
11583,36679,"TRUE",,,,
11591,36684,"TRUE",,,,
11627,36728,"TRUE",,,,
36814,36815,"TRUE",,,,
36957,36958,"TRUE",,,,
11800,36960,"TRUE",,,,
11866,37091,"TRUE",,,,
11872,37100,"TRUE",,,,
11879,37114,"TRUE",,,,
12249,37670,"TRUE",,,,
12330,37755,"TRUE",,,,
37885,37886,"TRUE",,,,
12436,37892,"TRUE",,,,
12541,38039,"TRUE",,,,
12592,38109,"TRUE",,,,
12643,38193,"TRUE",,,,
12716,38286,"TRUE",,,,
12754,38329,"TRUE",,,,
38438,38439,"TRUE",,,,
12856,38451,"TRUE",,,,
12885,38502,"TRUE",,,,
12967,38640,"TRUE",,,,
38642,12968,"TRUE",,,,
13009,38709,"TRUE",,,,
13041,38751,"TRUE",,,,
13078,38824,"TRUE",,,,
13104,38849,"TRUE",,,,
38906,13123,"TRUE",,,,
13186,38975,"TRUE",,,,
13273,39098,"TRUE",,,,
13275,39099,"TRUE",,,,
13292,39131,"TRUE",,,,
13336,39166,"TRUE",,,,
13372,39224,"TRUE",,,,
13413,39290,"TRUE",,,,
39300,39301,"TRUE",,,,
13486,39418,"TRUE",,,,
39488,13534,"TRUE",,,,
39493,13536,"TRUE",,,,
13543,39510,"TRUE",,,,
39511,39512,"TRUE",,,,
13658,39719,"TRUE",,,,
13713,39781,"TRUE",,,,
13778,39874,"TRUE",,,,
39949,13825,"TRUE",,,,
13829,39956,"TRUE",,,,
13859,39989,"TRUE",,,,
39998,13864,"TRUE",,,,
40058,40059,"TRUE",,,,
13920,40065,"TRUE",,,,
40163,13981,"TRUE",,,,
14040,40265,"TRUE",,,,
14050,40305,"TRUE",,,,
14152,40477,"TRUE",,,,
14171,40498,"TRUE",,,,
40530,14198,"TRUE",,,,
14276,40589,"TRUE",,,,
40593,14277,"TRUE",,,,
40682,14356,"TRUE",,,,
14375,40717,"TRUE",,,,
14447,40810,"TRUE",,,,
14455,40813,"TRUE",,,,
40851,14492,"TRUE",,,,
40881,14513,"TRUE",,,,
14633,41060,"TRUE",,,,
14740,41177,"TRUE",,,,
14813,41280,"TRUE",,,,
14915,41380,"TRUE",,,,
41389,14922,"TRUE",,,,
14931,41391,"TRUE",,,,
14954,41411,"TRUE",,,,
15002,41452,"TRUE",,,,
15069,41497,"TRUE",,,,
15139,41603,"TRUE",,,,
15150,41611,"TRUE",,,,
41650,15159,"TRUE",,,,
15250,41756,"TRUE",,,,
41768,15253,"TRUE",,,,
15340,41886,"TRUE",,,,
41925,41926,"TRUE",,,,
41984,15414,"TRUE",,,,
15494,42089,"TRUE",,,,
15558,42139,"TRUE",,,,
15598,42199,"TRUE",,,,
15636,42242,"TRUE",,,,
15646,42254,"TRUE",,,,
15660,42272,"TRUE",,,,
15671,42289,"TRUE",,,,
15673,42294,"TRUE",,,,
15684,42302,"TRUE",,,,
42418,42419,"TRUE",,,,
15829,42472,"TRUE",,,,
15855,42508,"TRUE",,,,
42527,15863,"TRUE",,,,
15865,42542,"TRUE",,,,
42581,42582,"TRUE",,,,
15933,42661,"TRUE",,,,
16031,42844,"TRUE",,,,
16109,42977,"TRUE",,,,
43022,16135,"TRUE",,,,
43024,43025,"TRUE",,,,
16278,43187,"TRUE",,,,
16286,43199,"TRUE",,,,
43245,16331,"TRUE",,,,
16420,43341,"TRUE",,,,
43356,16439,"TRUE",,,,
16467,43379,"TRUE",,,,
16542,43449,"TRUE",,,,
16602,43561,"TRUE",,,,
16610,43567,"TRUE",,,,
16648,43630,"TRUE",,,,
16656,43656,"TRUE",,,,
16753,43775,"TRUE",,,,
16831,43898,"TRUE",,,,
16902,43981,"TRUE",,,,
43988,16907,"TRUE",,,,
16974,44113,"TRUE",,,,
44115,44116,"TRUE",,,,
17037,44209,"TRUE",,,,
44368,17116,"TRUE",,,,
17182,44473,"TRUE",,,,
17184,44476,"TRUE",,,,
17193,44484,"TRUE",,,,
17240,44554,"TRUE",,,,
44602,44603,"TRUE",,,,
17333,44645,"TRUE",,,,
17496,44832,"TRUE",,,,
44927,44928,"TRUE",,,,
17573,44941,"TRUE",,,,
17697,45141,"TRUE",,,,
17707,45157,"TRUE",,,,
17722,45178,"TRUE",,,,
17742,45198,"TRUE",,,,
17753,45223,"TRUE",,,,
17755,45224,"TRUE",,,,
17783,45278,"TRUE",,,,
45373,17819,"TRUE",,,,
45484,17883,"TRUE",,,,
17885,45488,"TRUE",,,,
17892,45496,"TRUE",,,,
17979,45653,"TRUE",,,,
45740,18049,"TRUE",,,,
18124,45861,"TRUE",,,,
18137,45881,"TRUE",,,,
18151,45893,"TRUE",,,,
45922,45923,"TRUE",,,,
18226,45979,"TRUE",,,,
18233,45991,"TRUE",,,,
18238,46000,"TRUE",,,,
46174,46175,"TRUE",,,,
46205,18374,"TRUE",,,,
18405,46249,"TRUE",,,,
18409,46253,"TRUE",,,,
46283,18424,"TRUE",,,,
46419,46420,"TRUE",,,,
18530,46428,"TRUE",,,,
7311,7310,"TRUE",,,,
7311,30486,"TRUE",,,,
8906,8905,"TRUE",,,,
8906,32735,"TRUE",,,,
38739,38740,"TRUE",,,,
38739,38741,"TRUE",,,,
39925,39926,"TRUE",,,,
39925,39927,"TRUE",,,,
497,20733,"TRUE",,"TRUE",,
1039,21443,"TRUE",,"TRUE",,
21562,21563,"TRUE",,"TRUE",,
21562,21564,"TRUE",,"TRUE",,
21741,21742,"TRUE",,,,
1542,22203,"TRUE",,"TRUE",,
1922,22695,"TRUE",,"TRUE",,
2014,22838,"TRUE",,"TRUE",,
2509,23608,"TRUE",,"TRUE",,
23895,23896,"TRUE",,"TRUE",,
3077,24379,"TRUE",,"TRUE",,
3364,24774,"TRUE",,"TRUE",,
25512,25513,"TRUE",,"TRUE",,"TRUE"
3870,25563,"TRUE",,"TRUE",,
4405,26257,"TRUE",,"TRUE",,
26282,26283,"TRUE",,"TRUE",,
4440,26307,"TRUE",,"TRUE",,
26333,26334,"TRUE",,,,
4647,26660,"TRUE",,"TRUE",,
5128,46500,"TRUE",,"TRUE",,
5908,28381,"TRUE",,"TRUE",,
28694,28695,"TRUE",,"TRUE",,
6377,29132,"TRUE",,"TRUE",,
6405,29178,"TRUE",,"TRUE",,
6581,29473,"TRUE",,"TRUE",,
29704,29703,"TRUE",,"TRUE",,
6792,29831,"TRUE",,,,
30078,30079,"TRUE",,,,
30581,30582,"TRUE",,"TRUE",,
30659,30660,"TRUE",,"TRUE",,
7513,30784,"TRUE",,"TRUE",,
7607,30938,"TRUE",,"TRUE",,
31026,31027,"TRUE",,"TRUE",,
7837,31194,"TRUE",,"TRUE",,
31303,7932,"TRUE",,"TRUE",,
8026,31426,"TRUE",,"TRUE",,
8140,31570,"TRUE",,"TRUE",,
32022,32023,"TRUE",,"TRUE",,
8724,32425,"TRUE",,"TRUE",,
32477,46550,"TRUE",,"TRUE",,
32630,32629,"TRUE",,"TRUE",,
33227,9207,"TRUE",,"TRUE",,
33231,33232,"TRUE",,"TRUE",,
33528,9386,"TRUE",,"TRUE",,
9461,33660,"TRUE",,"TRUE",,
33775,33776,"TRUE",,"TRUE",,
34049,34050,"TRUE",,,,
10315,34900,"TRUE",,"TRUE",,
10552,35207,"TRUE",,"TRUE",,
10616,35280,"TRUE",,"TRUE",,
10702,35413,"TRUE",,"TRUE",,
10798,35619,"TRUE",,,,
36378,46521,"TRUE",,"TRUE",,
36594,36595,"TRUE",,"TRUE",,
37349,37350,"TRUE",,"TRUE",,
37432,37433,"TRUE",,,,
12312,37734,"TRUE",,"TRUE",,
12998,38690,"TRUE",,"TRUE",,
13054,38778,"TRUE",,"TRUE",,
39010,39011,"TRUE",,"TRUE",,
13870,40002,"TRUE",,"TRUE",,
40019,40020,"TRUE",,"TRUE",,
40586,40587,"TRUE",,"TRUE",,
14310,40640,"TRUE",,"TRUE",,
41010,41011,"TRUE",,"TRUE",,
14749,41182,"TRUE",,"TRUE",,
41293,41294,"TRUE",,"TRUE",,
41300,41301,"TRUE",,"TRUE",,
15308,41845,"TRUE",,"TRUE",,
42355,42356,"TRUE",,"TRUE",,
16164,43055,"TRUE",,"TRUE",,
16691,43725,"TRUE",,"TRUE",,
44469,44468,"TRUE",,"TRUE",,
44499,44500,"TRUE",,"TRUE",,
17515,44858,"TRUE",,,,
17553,44915,"TRUE",,,,
17610,45017,"TRUE",,"TRUE",,
45500,17896,"TRUE",,"TRUE",,
45580,45581,"TRUE",,"TRUE",,
18047,45732,"TRUE",,,,
45858,45859,"TRUE",,,,
18140,45887,"TRUE",,,,
18219,45974,"TRUE",,"TRUE",,
18295,46067,"TRUE",,,,
18402,46247,"TRUE",,"TRUE",,
20003,20004,,"TRUE",,,
20011,20012,,"TRUE",,,
20020,20021,,"TRUE",,,
20022,20023,,"TRUE",,,
20024,20025,,"TRUE",,,
20028,20029,,"TRUE",,,
24,25,,"TRUE",,,
20039,20040,,"TRUE",,,
20042,20043,,"TRUE",,,
20050,20051,,"TRUE",,,
20055,20056,,"TRUE",,,
20059,20060,,"TRUE",,,
62,20069,,"TRUE",,,
20082,20083,,"TRUE",,,
20086,20087,,"TRUE",,,
20088,72,,"TRUE",,,
20103,20104,,"TRUE",,,
20106,20107,,"TRUE",,,
20120,20121,,"TRUE",,,
20125,20126,,"TRUE",,,
20128,20129,,"TRUE",,,
20141,20142,,"TRUE",,,
20150,20151,,"TRUE",,,
20160,20161,,"TRUE",,,
20162,20163,,"TRUE",,,
20166,20167,,"TRUE",,,
20171,20172,,"TRUE",,,
20176,137,,"TRUE",,,
20199,20200,,"TRUE",,,
20208,20209,,"TRUE",,,
20210,20211,,"TRUE",,,
20212,20213,,"TRUE",,,
20218,20219,,"TRUE",,,
20224,20225,,"TRUE",,,
20226,182,,"TRUE",,,
20231,20232,,"TRUE",,,
20240,20241,,"TRUE",,,
20243,20244,,"TRUE",,,
20249,20250,,"TRUE",,,
20254,20255,,"TRUE",,,
20257,20258,,"TRUE",,,
197,198,,"TRUE",,,
20259,204,,"TRUE",,,
20260,20261,,"TRUE",,,
20274,20275,,"TRUE",,,
20282,20283,,"TRUE",,,
20288,20289,,"TRUE",,,
20314,20315,,"TRUE",,,
20321,20322,,"TRUE",,,
247,248,,"TRUE",,,
20327,20328,,"TRUE",,,
20329,20330,,"TRUE",,,
20345,20346,,"TRUE",,,
270,20352,,"TRUE",,,
272,20357,,"TRUE",,,
20357,20358,,"TRUE",,,
20359,273,,"TRUE",,,
20374,20375,,"TRUE",,,
20377,20378,,"TRUE",,,
20380,20381,,"TRUE",,,
20388,20389,,"TRUE",,,
20406,20407,,"TRUE",,,
20415,20416,,"TRUE",,,
20431,20432,,"TRUE",,,
20432,20433,,"TRUE",,,
20433,20434,,"TRUE",,,
318,20445,,"TRUE",,,
20445,20446,,"TRUE",,,
20446,20447,,"TRUE",,,
20448,20449,,"TRUE",,,
20452,320,,"TRUE",,,
20464,20465,,"TRUE",,,
20472,20473,,"TRUE",,,
20478,20479,,"TRUE",,,
20482,20483,,"TRUE",,,
20483,20484,,"TRUE",,,
340,341,,"TRUE",,,
20491,20492,,"TRUE",,,
350,351,,"TRUE",,,
20500,20501,,"TRUE",,,
20510,20511,,"TRUE",,,
20517,364,,"TRUE",,,
20519,20520,,"TRUE",,,
20543,20544,,"TRUE",,,
20589,20590,,"TRUE",,,
20593,20594,,"TRUE",,,
20595,20596,,"TRUE",,,
20601,20602,,"TRUE",,,
20606,20607,,"TRUE",,,
20610,20611,,"TRUE",,,
20618,20619,,"TRUE",,,
20631,20632,,"TRUE",,,
20637,20638,,"TRUE",,,
444,20645,,"TRUE",,,
20648,20649,,"TRUE",,,
20652,20653,,"TRUE",,,
20654,20655,,"TRUE",,,
20658,20659,,"TRUE",,,
20660,20661,,"TRUE",,,
20682,20683,,"TRUE",,,
20687,20688,,"TRUE",,,
20688,20689,,"TRUE",,,
20691,20692,,"TRUE",,,
20694,20695,,"TRUE",,,
20717,20718,,"TRUE",,,
497,498,,"TRUE",,,
20741,20742,,"TRUE",,,
20744,20745,,"TRUE",,,
20749,20750,,"TRUE",,,
20752,20753,,"TRUE",,,
20770,20771,,"TRUE",,,
20780,20781,,"TRUE",,,
20809,20810,,"TRUE",,,
20828,20829,,"TRUE",,,
20831,20832,,"TRUE",,,
20839,20840,,"TRUE",,,
20847,582,,"TRUE",,,
20848,20849,,"TRUE",,,
20859,20860,,"TRUE",,,
20871,589,,"TRUE",,,
603,20883,,"TRUE",,,
20902,20903,,"TRUE",,,
617,618,,"TRUE",,,
20905,20906,,"TRUE",,,
20921,628,,"TRUE",,,
20925,20926,,"TRUE",,,
636,637,,"TRUE",,,
20935,20936,,"TRUE",,,
20944,20945,,"TRUE",,,
20948,20949,,"TRUE",,,
20952,20953,,"TRUE",,,
20957,20958,,"TRUE",,,
20967,20968,,"TRUE",,,
658,20971,,"TRUE",,,
20976,664,,"TRUE",,,
20977,20978,,"TRUE",,,
20979,20980,,"TRUE",,,
20981,20982,,"TRUE",,,
20988,20989,,"TRUE",,,
671,20990,,"TRUE",,,
675,676,,"TRUE",,,
21012,21013,,"TRUE",,,
21020,21021,,"TRUE",,,
21028,21029,,"TRUE",,,
21044,21045,,"TRUE",,,
21053,21054,,"TRUE",,,
727,21057,,"TRUE",,,
21061,21062,,"TRUE",,,
738,739,,"TRUE",,,
740,741,,"TRUE",,,
21076,21077,,"TRUE",,,
21078,21079,,"TRUE",,,
21080,21081,,"TRUE",,,
21084,21085,,"TRUE",,,
21088,21089,,"TRUE",,,
21094,21095,,"TRUE",,,
21103,21104,,"TRUE",,,
21109,21110,,"TRUE",,,
21111,21112,,"TRUE",,,
21113,780,,"TRUE",,,
21124,21125,,"TRUE",,,
21133,791,,"TRUE",,,
21135,21136,,"TRUE",,,
21138,21139,,"TRUE",,,
21142,21143,,"TRUE",,,
21149,21150,,"TRUE",,,
21154,21155,,"TRUE",,,
21158,21159,,"TRUE",,,
21164,21165,,"TRUE",,,
21167,21168,,"TRUE",,,
21175,21176,,"TRUE",,,
21178,21179,,"TRUE",,,
21187,21188,,"TRUE",,,
21194,21195,,"TRUE",,,
21197,21198,,"TRUE",,,
21199,21200,,"TRUE",,,
21221,21222,,"TRUE",,,
21223,21224,,"TRUE",,,
21226,21227,,"TRUE",,,
21234,21235,,"TRUE",,,
21236,21237,,"TRUE",,,
21239,21240,,"TRUE",,,
21242,21243,,"TRUE",,,
21245,21246,,"TRUE",,,
21247,21248,,"TRUE",,,
21251,21252,,"TRUE",,,
21257,21258,,"TRUE",,,
21260,21261,,"TRUE",,,
876,877,,"TRUE",,,
888,21273,,"TRUE",,,
21275,889,,"TRUE",,,
21286,21287,,"TRUE",,,
21291,21292,,"TRUE",,,
21296,21297,,"TRUE",,,
21304,21305,,"TRUE",,,
21307,21308,,"TRUE",,,
21317,21318,,"TRUE",,,
21320,942,,"TRUE",,,
21323,21324,,"TRUE",,,
21329,21330,,"TRUE",,,
21333,21334,,"TRUE",,,
21339,954,,"TRUE",,,
21343,957,,"TRUE",,,
21353,21354,,"TRUE",,,
967,968,,"TRUE",,,
21362,21363,,"TRUE",,,
21368,21369,,"TRUE",,,
21375,21376,,"TRUE",,,
983,21377,,"TRUE",,,
21384,21385,,"TRUE",,,
21388,21389,,"TRUE",,,
21397,1010,,"TRUE",,,
21428,21429,,"TRUE",,,
21444,21445,,"TRUE",,,
21448,21449,,"TRUE",,,
21451,21452,,"TRUE",,,
21454,21455,,"TRUE",,,
21457,21458,,"TRUE",,,
21468,21469,,"TRUE",,,
21476,21477,,"TRUE",,,
21491,21492,,"TRUE",,,
21500,21501,,"TRUE",,,
21510,21511,,"TRUE",,,
21515,21516,,"TRUE",,,
21517,1086,,"TRUE",,,
21521,21522,,"TRUE",,,
21532,21533,,"TRUE",,,
21534,21535,,"TRUE",,,
21545,21546,,"TRUE",,,
21553,21554,,"TRUE",,,
21555,21556,,"TRUE",,,
21558,21559,,"TRUE",,,
21565,21566,,"TRUE",,,
21567,21568,,"TRUE",,,
21570,21571,,"TRUE",,,
21575,21576,,"TRUE",,,
1111,1112,,"TRUE",,,
1113,1114,,"TRUE",,,
1128,1129,,"TRUE",,,
21607,21608,,"TRUE",,,
21611,21612,,"TRUE",,,
21613,21614,,"TRUE",,,
21616,21617,,"TRUE",,,
21620,21621,,"TRUE",,,
1171,1172,,"TRUE",,,
21638,21639,,"TRUE",,,
21641,21642,,"TRUE",,,
21644,21645,,"TRUE",,,
21646,21647,,"TRUE",,,
21653,21654,,"TRUE",,,
21655,21656,,"TRUE",,,
1193,21661,,"TRUE",,,
21665,21666,,"TRUE",,,
21669,21670,,"TRUE",,,
21673,21674,,"TRUE",,,
21675,1198,,"TRUE",,,
1198,21676,,"TRUE",,,
21677,21678,,"TRUE",,,
21683,21684,,"TRUE",,,
21686,21687,,"TRUE",,,
21690,21691,,"TRUE",,,
21697,1206,,"TRUE",,,
1217,1218,,"TRUE",,,
21704,21705,,"TRUE",,,
21706,21707,,"TRUE",,,
21708,21709,,"TRUE",,,
21717,1231,,"TRUE",,,
21726,21727,,"TRUE",,,
21743,21744,,"TRUE",,,
21745,21746,,"TRUE",,,
21749,21750,,"TRUE",,,
21750,21751,,"TRUE",,,
21752,21753,,"TRUE",,,
21754,1266,,"TRUE",,,
21757,21758,,"TRUE",,,
21779,21780,,"TRUE",,,
21791,21792,,"TRUE",,,
21808,21809,,"TRUE",,,
21814,21815,,"TRUE",,,
21839,21840,,"TRUE",,,
21844,21845,,"TRUE",,,
1310,21847,,"TRUE",,,
21848,21849,,"TRUE",,,
1315,1316,,"TRUE",,,
21854,21855,,"TRUE",,,
21857,21858,,"TRUE",,,
21869,21870,,"TRUE",,,
21876,21877,,"TRUE",,,
21879,21880,,"TRUE",,,
21883,21884,,"TRUE",,,
21893,21894,,"TRUE",,,
21900,21901,,"TRUE",,,
21909,21910,,"TRUE",,,
21927,21928,,"TRUE",,,
21933,1352,,"TRUE",,,
21936,21937,,"TRUE",,,
21940,21941,,"TRUE",,,
21963,21964,,"TRUE",,,
21966,21967,,"TRUE",,,
21971,21972,,"TRUE",,,
1382,21973,,"TRUE",,,
22003,22004,,"TRUE",,,
22005,22006,,"TRUE",,,
22007,22008,,"TRUE",,,
22012,22013,,"TRUE",,,
22025,22026,,"TRUE",,,
22028,22029,,"TRUE",,,
1424,1425,,"TRUE",,,
22039,22040,,"TRUE",,,
22046,22047,,"TRUE",,,
22049,22050,,"TRUE",,,
22051,22052,,"TRUE",,,
1449,1450,,"TRUE",,,
22060,22061,,"TRUE",,,
22067,22068,,"TRUE",,,
22069,22070,,"TRUE",,,
1457,22071,,"TRUE",,,
22074,22075,,"TRUE",,,
22093,22094,,"TRUE",,,
1495,22117,,"TRUE",,,
22130,22131,,"TRUE",,,
22132,22133,,"TRUE",,,
22135,22136,,"TRUE",,,
22139,22140,,"TRUE",,,
22163,22164,,"TRUE",,,
22169,22170,,"TRUE",,,
22171,22172,,"TRUE",,,
22194,22195,,"TRUE",,,
22197,22198,,"TRUE",,,
1543,1544,,"TRUE",,,
22212,22213,,"TRUE",,,
22228,22229,,"TRUE",,,
1556,22232,,"TRUE",,,
1560,1561,,"TRUE",,,
22233,22234,,"TRUE",,,
22238,1564,,"TRUE",,,
22249,22250,,"TRUE",,,
22265,22266,,"TRUE",,,
1579,22279,,"TRUE",,,
22284,22285,,"TRUE",,,
1589,22291,,"TRUE",,,
22292,22293,,"TRUE",,,
22296,22297,,"TRUE",,,
22302,22303,,"TRUE",,,
22307,22308,,"TRUE",,,
22316,22317,,"TRUE",,,
22318,22319,,"TRUE",,,
22323,22324,,"TRUE",,,
22325,22326,,"TRUE",,,
22330,22331,,"TRUE",,,
22332,22333,,"TRUE",,,
22338,22339,,"TRUE",,,
22347,22348,,"TRUE",,,
22364,22365,,"TRUE",,,
22368,22369,,"TRUE",,,
22373,22374,,"TRUE",,,
1658,22377,,"TRUE",,,
22387,22388,,"TRUE",,,
1668,22391,,"TRUE",,,
22396,22397,,"TRUE",,,
22410,22411,,"TRUE",,,
1683,22412,,"TRUE",,,
1684,1685,,"TRUE",,,
22415,22416,,"TRUE",,,
1689,1690,,"TRUE",,,
22430,1702,,"TRUE",,,
22433,22434,,"TRUE",,,
1717,1718,,"TRUE",,,
22453,22454,,"TRUE",,,
22462,22463,,"TRUE",,,
22472,22473,,"TRUE",,,
1730,22477,,"TRUE",,,
22481,22482,,"TRUE",,,
22492,22493,,"TRUE",,,
22506,22507,,"TRUE",,,
22512,22513,,"TRUE",,,
1767,1769,,"TRUE",,,
22525,22526,,"TRUE",,,
22527,22528,,"TRUE",,,
22536,22537,,"TRUE",,,
1783,22538,,"TRUE",,,
22539,22540,,"TRUE",,,
22545,22546,,"TRUE",,,
22551,22552,,"TRUE",,,
22553,22554,,"TRUE",,,
22555,22556,,"TRUE",,,
22564,22565,,"TRUE",,,
22580,22581,,"TRUE",,,
22584,22585,,"TRUE",,,
22588,22589,,"TRUE",,,
1827,22594,,"TRUE",,,
22602,22603,,"TRUE",,,
22618,22619,,"TRUE",,,
22624,22625,,"TRUE",,,
1859,1860,,"TRUE",,,
22648,22649,,"TRUE",,,
1886,22656,,"TRUE",,,
22666,22667,,"TRUE",,,
22669,22670,,"TRUE",,,
1912,22682,,"TRUE",,,
22686,1918,,"TRUE",,,
22689,22690,,"TRUE",,,
22698,22699,,"TRUE",,,
1928,22701,,"TRUE",,,
22704,22705,,"TRUE",,,
22708,22709,,"TRUE",,,
22712,22713,,"TRUE",,,
22719,22720,,"TRUE",,,
22721,22722,,"TRUE",,,
1938,1939,,"TRUE",,,
1948,22730,,"TRUE",,,
22730,22731,,"TRUE",,,
22734,22735,,"TRUE",,,
22745,22746,,"TRUE",,,
1960,1961,,"TRUE",,,
22753,22754,,"TRUE",,,
22755,22756,,"TRUE",,,
1966,22760,,"TRUE",,,
22760,22761,,"TRUE",,,
22766,22767,,"TRUE",,,
22785,22786,,"TRUE",,,
1985,22800,,"TRUE",,,
22802,22803,,"TRUE",,,
22806,22807,,"TRUE",,,
22812,22813,,"TRUE",,,
2003,22831,,"TRUE",,,
22835,22836,,"TRUE",,,
22842,22843,,"TRUE",,,
22847,22848,,"TRUE",,,
22849,22850,,"TRUE",,,
22851,22852,,"TRUE",,,
22853,22854,,"TRUE",,,
22857,22858,,"TRUE",,,
22862,22863,,"TRUE",,,
22867,22868,,"TRUE",,,
22871,22872,,"TRUE",,,
22873,22874,,"TRUE",,,
22876,22877,,"TRUE",,,
22878,22879,,"TRUE",,,
2045,22881,,"TRUE",,,
22883,22884,,"TRUE",,,
22887,22888,,"TRUE",,,
22894,22895,,"TRUE",,,
22896,22897,,"TRUE",,,
22917,22918,,"TRUE",,,
2063,2064,,"TRUE",,,
2064,2065,,"TRUE",,,
22928,22929,,"TRUE",,,
22936,22937,,"TRUE",,,
22941,22942,,"TRUE",,,
22947,22948,,"TRUE",,,
22951,22952,,"TRUE",,,
22953,2082,,"TRUE",,,
22971,22972,,"TRUE",,,
22973,2091,,"TRUE",,,
23022,23023,,"TRUE",,,
23026,23027,,"TRUE",,,
23050,23051,,"TRUE",,,
23059,23060,,"TRUE",,,
23061,23062,,"TRUE",,,
23064,23065,,"TRUE",,,
23069,23070,,"TRUE",,,
23080,2160,,"TRUE",,,
2167,23086,,"TRUE",,,
23098,23099,,"TRUE",,,
23099,23100,,"TRUE",,,
23103,23104,,"TRUE",,,
2177,23105,,"TRUE",,,
23107,23108,,"TRUE",,,
2180,23109,,"TRUE",,,
23109,23110,,"TRUE",,,
23113,23114,,"TRUE",,,
23125,23126,,"TRUE",,,
23144,23145,,"TRUE",,,
23146,23147,,"TRUE",,,
23153,23154,,"TRUE",,,
2242,2243,,"TRUE",,,
23202,23203,,"TRUE",,,
23206,23207,,"TRUE",,,
23209,23210,,"TRUE",,,
23216,2262,,"TRUE",,,
23229,23230,,"TRUE",,,
23240,23241,,"TRUE",,,
23243,23244,,"TRUE",,,
2284,23256,,"TRUE",,,
2285,2286,,"TRUE",,,
23257,23258,,"TRUE",,,
23260,2290,,"TRUE",,,
23264,23265,,"TRUE",,,
23270,23271,,"TRUE",,,
23280,23281,,"TRUE",,,
23288,23289,,"TRUE",,,
23289,23290,,"TRUE",,,
23293,23294,,"TRUE",,,
23298,23299,,"TRUE",,,
2310,2311,,"TRUE",,,
23304,23305,,"TRUE",,,
23308,23309,,"TRUE",,,
23333,2338,,"TRUE",,,
2339,2340,,"TRUE",,,
2343,2344,,"TRUE",,,
23356,23357,,"TRUE",,,
23358,23359,,"TRUE",,,
23360,23361,,"TRUE",,,
23378,23379,,"TRUE",,,
23384,23385,,"TRUE",,,
23389,23390,,"TRUE",,,
2381,23391,,"TRUE",,,
23393,23394,,"TRUE",,,
23398,23399,,"TRUE",,,
2393,23401,,"TRUE",,,
23402,23403,,"TRUE",,,
23417,23418,,"TRUE",,,
23424,23425,,"TRUE",,,
23430,23431,,"TRUE",,,
23440,23441,,"TRUE",,,
23452,23453,,"TRUE",,,
2429,23458,,"TRUE",,,
23469,23470,,"TRUE",,,
23487,23488,,"TRUE",,,
23489,23490,,"TRUE",,,
23504,23505,,"TRUE",,,
23509,2451,,"TRUE",,,
2468,23531,,"TRUE",,,
23539,23540,,"TRUE",,,
23541,23542,,"TRUE",,,
23545,23546,,"TRUE",,,
23548,23549,,"TRUE",,,
23554,23555,,"TRUE",,,
23575,23576,,"TRUE",,,
23591,2498,,"TRUE",,,
23598,23599,,"TRUE",,,
2506,2507,,"TRUE",,,
23619,23620,,"TRUE",,,
23635,23636,,"TRUE",,,
2539,2540,,"TRUE",,,
23652,23653,,"TRUE",,,
2547,2548,,"TRUE",,,
2550,2551,,"TRUE",,,
23659,23660,,"TRUE",,,
23662,2553,,"TRUE",,,
23667,23668,,"TRUE",,,
23675,23676,,"TRUE",,,
2563,23680,,"TRUE",,,
23688,23689,,"TRUE",,,
23692,23693,,"TRUE",,,
23698,2594,,"TRUE",,,
23710,23711,,"TRUE",,,
23712,23713,,"TRUE",,,
2598,23718,,"TRUE",,,
23719,2604,,"TRUE",,,
23723,23724,,"TRUE",,,
23726,23727,,"TRUE",,,
23733,23734,,"TRUE",,,
23735,23736,,"TRUE",,,
23743,23744,,"TRUE",,,
23751,23752,,"TRUE",,,
23753,23754,,"TRUE",,,
23762,23763,,"TRUE",,,
2639,23771,,"TRUE",,,
23776,23777,,"TRUE",,,
23780,23781,,"TRUE",,,
23792,23793,,"TRUE",,,
23798,23799,,"TRUE",,,
2664,2665,,"TRUE",,,
23804,23805,,"TRUE",,,
23808,23809,,"TRUE",,,
23813,23814,,"TRUE",,,
23815,2672,,"TRUE",,,
2690,23837,,"TRUE",,,
23838,23839,,"TRUE",,,
23842,23843,,"TRUE",,,
2700,2701,,"TRUE",,,
23851,23852,,"TRUE",,,
23854,23855,,"TRUE",,,
23857,23858,,"TRUE",,,
23870,23871,,"TRUE",,,
2736,2737,,"TRUE",,,
23902,23903,,"TRUE",,,
23907,23908,,"TRUE",,,
23909,23910,,"TRUE",,,
2743,2744,,"TRUE",,,
2753,2754,,"TRUE",,,
23919,23920,,"TRUE",,,
23922,23923,,"TRUE",,,
23926,23927,,"TRUE",,,
23930,23931,,"TRUE",,,
23934,23935,,"TRUE",,,
2764,2765,,"TRUE",,,
23939,23940,,"TRUE",,,
23949,23950,,"TRUE",,,
23970,23971,,"TRUE",,,
23972,23973,,"TRUE",,,
23975,23976,,"TRUE",,,
23977,23978,,"TRUE",,,
23981,23982,,"TRUE",,,
23986,23987,,"TRUE",,,
23988,23989,,"TRUE",,,
23990,23991,,"TRUE",,,
24002,24003,,"TRUE",,,
24007,24008,,"TRUE",,,
24009,24010,,"TRUE",,,
2810,2811,,"TRUE",,,
24011,24012,,"TRUE",,,
24031,24032,,"TRUE",,,
24041,24042,,"TRUE",,,
24055,24056,,"TRUE",,,
24057,24058,,"TRUE",,,
2853,2854,,"TRUE",,,
24062,24063,,"TRUE",,,
24079,24080,,"TRUE",,,
24081,24082,,"TRUE",,,
24084,24085,,"TRUE",,,
24104,24105,,"TRUE",,,
24106,24107,,"TRUE",,,
24114,24115,,"TRUE",,,
24122,24123,,"TRUE",,,
24124,2882,,"TRUE",,,
24133,24134,,"TRUE",,,
24143,24144,,"TRUE",,,
24149,24150,,"TRUE",,,
24154,2903,,"TRUE",,,
24174,24175,,"TRUE",,,
24178,2924,,"TRUE",,,
24194,24195,,"TRUE",,,
2939,24201,,"TRUE",,,
2940,2941,,"TRUE",,,
24205,24206,,"TRUE",,,
24206,24207,,"TRUE",,,
24214,24215,,"TRUE",,,
2953,2954,,"TRUE",,,
24232,24233,,"TRUE",,,
2971,2972,,"TRUE",,,
24242,24243,,"TRUE",,,
24244,24245,,"TRUE",,,
24246,24247,,"TRUE",,,
2983,2984,,"TRUE",,,
24253,24254,,"TRUE",,,
24259,24260,,"TRUE",,,
24273,24274,,"TRUE",,,
24284,24285,,"TRUE",,,
3002,3003,,"TRUE",,,
24294,24295,,"TRUE",,,
24299,24300,,"TRUE",,,
24306,24307,,"TRUE",,,
24315,24316,,"TRUE",,,
24317,24318,,"TRUE",,,
24319,24320,,"TRUE",,,
24321,24322,,"TRUE",,,
24327,24328,,"TRUE",,,
24329,24330,,"TRUE",,,
24335,24336,,"TRUE",,,
24338,24339,,"TRUE",,,
24353,24354,,"TRUE",,,
24362,24363,,"TRUE",,,
24364,24365,,"TRUE",,,
24371,24372,,"TRUE",,,
24373,24374,,"TRUE",,,
24375,24376,,"TRUE",,,
24384,24385,,"TRUE",,,
24399,24400,,"TRUE",,,
24405,24406,,"TRUE",,,
24416,24417,,"TRUE",,,
3127,3128,,"TRUE",,,
24426,24427,,"TRUE",,,
24447,24448,,"TRUE",,,
24455,24456,,"TRUE",,,
24469,24470,,"TRUE",,,
3155,24472,,"TRUE",,,
24473,24474,,"TRUE",,,
24484,24485,,"TRUE",,,
24488,24489,,"TRUE",,,
24518,24519,,"TRUE",,,
24534,24535,,"TRUE",,,
24547,24548,,"TRUE",,,
24549,24550,,"TRUE",,,
3209,24561,,"TRUE",,,
24562,24563,,"TRUE",,,
24572,24573,,"TRUE",,,
24586,24587,,"TRUE",,,
24590,24591,,"TRUE",,,
24594,24595,,"TRUE",,,
24604,24605,,"TRUE",,,
24613,24614,,"TRUE",,,
24619,24620,,"TRUE",,,
24621,24622,,"TRUE",,,
3259,3260,,"TRUE",,,
24641,24642,,"TRUE",,,
24645,24646,,"TRUE",,,
24656,3279,,"TRUE",,,
24659,24660,,"TRUE",,,
24663,24664,,"TRUE",,,
3284,3285,,"TRUE",,,
3285,24665,,"TRUE",,,
24675,24676,,"TRUE",,,
24694,24695,,"TRUE",,,
3318,24696,,"TRUE",,,
3319,3320,,"TRUE",,,
24701,24702,,"TRUE",,,
24705,24706,,"TRUE",,,
24711,24712,,"TRUE",,,
3331,24716,,"TRUE",,,
24718,24719,,"TRUE",,,
24729,24730,,"TRUE",,,
24753,3344,,"TRUE",,,
3366,3367,,"TRUE",,,
24780,24781,,"TRUE",,,
24804,24805,,"TRUE",,,
24811,24812,,"TRUE",,,
24813,24814,,"TRUE",,,
24815,24816,,"TRUE",,,
24821,24822,,"TRUE",,,
24849,24850,,"TRUE",,,
24852,24853,,"TRUE",,,
3413,24855,,"TRUE",,,
24871,24872,,"TRUE",,,
24875,24876,,"TRUE",,,
24881,24882,,"TRUE",,,
24883,24884,,"TRUE",,,
24891,24892,,"TRUE",,,
24893,24894,,"TRUE",,,
24895,24896,,"TRUE",,,
24897,24898,,"TRUE",,,
3435,3436,,"TRUE",,,
24916,24917,,"TRUE",,,
3450,3451,,"TRUE",,,
24923,24924,,"TRUE",,,
24930,24931,,"TRUE",,,
24933,24934,,"TRUE",,,
24938,24939,,"TRUE",,,
24958,24959,,"TRUE",,,
24963,24964,,"TRUE",,,
24966,24967,,"TRUE",,,
24975,24976,,"TRUE",,,
24987,24988,,"TRUE",,,
24995,24996,,"TRUE",,,
3522,3523,,"TRUE",,,
25016,25017,,"TRUE",,,
25018,25019,,"TRUE",,,
25020,25021,,"TRUE",,,
25022,25023,,"TRUE",,,
25026,25027,,"TRUE",,,
25047,25048,,"TRUE",,,
25055,25056,,"TRUE",,,
25067,25068,,"TRUE",,,
25070,25071,,"TRUE",,,
25086,3542,,"TRUE",,,
25094,25095,,"TRUE",,,
25101,25102,,"TRUE",,,
25115,25116,,"TRUE",,,
25119,25120,,"TRUE",,,
25127,25128,,"TRUE",,,
25133,25134,,"TRUE",,,
25148,25149,,"TRUE",,,
3585,25152,,"TRUE",,,
25154,25155,,"TRUE",,,
25157,25158,,"TRUE",,,
25164,25165,,"TRUE",,,
25169,25170,,"TRUE",,,
25171,25172,,"TRUE",,,
25173,25174,,"TRUE",,,
25175,25176,,"TRUE",,,
25177,25178,,"TRUE",,,
25182,25183,,"TRUE",,,
25203,25204,,"TRUE",,,
25214,25215,,"TRUE",,,
25228,25229,,"TRUE",,,
3641,3642,,"TRUE",,,
25249,25250,,"TRUE",,,
25254,25255,,"TRUE",,,
25256,25257,,"TRUE",,,
25258,25259,,"TRUE",,,
25263,25264,,"TRUE",,,
25269,25270,,"TRUE",,,
25272,25273,,"TRUE",,,
25282,25283,,"TRUE",,,
25284,25285,,"TRUE",,,
25288,25289,,"TRUE",,,
25301,25302,,"TRUE",,,
25306,25307,,"TRUE",,,
3680,25316,,"TRUE",,,
25320,3684,,"TRUE",,,
25327,25328,,"TRUE",,,
25329,25330,,"TRUE",,,
3688,3689,,"TRUE",,,
25339,25340,,"TRUE",,,
3702,25342,,"TRUE",,,
25344,25345,,"TRUE",,,
25348,25349,,"TRUE",,,
25350,25351,,"TRUE",,,
25353,25354,,"TRUE",,,
25358,3718,,"TRUE",,,
25366,25367,,"TRUE",,,
25374,25375,,"TRUE",,,
3740,25389,,"TRUE",,,
25413,25414,,"TRUE",,,
25419,3759,,"TRUE",,,
25422,25423,,"TRUE",,,
25437,25438,,"TRUE",,,
25439,25440,,"TRUE",,,
25465,25466,,"TRUE",,,
25478,25479,,"TRUE",,,
3817,25487,,"TRUE",,,
3820,25490,,"TRUE",,,
25493,25494,,"TRUE",,,
3828,25500,,"TRUE",,,
25507,25508,,"TRUE",,,
25509,25510,,"TRUE",,,
25511,25512,,"TRUE",,,
25514,25515,,"TRUE",,,
25526,25527,,"TRUE",,,
25534,25535,,"TRUE",,,
25536,25537,,"TRUE",,,
25558,25559,,"TRUE",,,
25569,25570,,"TRUE",,,
25579,25580,,"TRUE",,,
25581,25582,,"TRUE",,,
3889,25584,,"TRUE",,,
25589,25590,,"TRUE",,,
25591,25592,,"TRUE",,,
25598,25599,,"TRUE",,,
3907,25600,,"TRUE",,,
25624,25625,,"TRUE",,,
25635,25636,,"TRUE",,,
25637,25638,,"TRUE",,,
25640,25641,,"TRUE",,,
25647,25648,,"TRUE",,,
25649,25650,,"TRUE",,,
25656,25657,,"TRUE",,,
25668,25669,,"TRUE",,,
25675,25676,,"TRUE",,,
3949,3950,,"TRUE",,,
25684,25685,,"TRUE",,,
3954,25691,,"TRUE",,,
3955,3956,,"TRUE",,,
25698,25699,,"TRUE",,,
25712,25713,,"TRUE",,,
25724,3975,,"TRUE",,,
25729,25730,,"TRUE",,,
25746,25747,,"TRUE",,,
25753,25754,,"TRUE",,,
4005,4006,,"TRUE",,,
25771,25772,,"TRUE",,,
25781,25782,,"TRUE",,,
25790,4029,,"TRUE",,,
25793,25794,,"TRUE",,,
25799,25800,,"TRUE",,,
25819,25820,,"TRUE",,,
25823,25824,,"TRUE",,,
25828,25829,,"TRUE",,,
25831,4050,,"TRUE",,,
4050,4051,,"TRUE",,,
25843,25844,,"TRUE",,,
25858,25859,,"TRUE",,,
25868,25869,,"TRUE",,,
25883,25884,,"TRUE",,,
25890,25891,,"TRUE",,,
4084,25895,,"TRUE",,,
25900,25901,,"TRUE",,,
25913,4090,,"TRUE",,,
25918,25919,,"TRUE",,,
25920,4092,,"TRUE",,,
25926,4102,,"TRUE",,,
25950,25951,,"TRUE",,,
25956,25957,,"TRUE",,,
25958,4128,,"TRUE",,,
25959,25960,,"TRUE",,,
25963,25964,,"TRUE",,,
25969,4142,,"TRUE",,,
25976,25977,,"TRUE",,,
25989,25990,,"TRUE",,,
25993,4173,,"TRUE",,,
4191,4192,,"TRUE",,,
26020,26021,,"TRUE",,,
4207,4208,,"TRUE",,,
4208,26024,,"TRUE",,,
26032,26033,,"TRUE",,,
4222,4223,,"TRUE",,,
26050,4233,,"TRUE",,,
26053,26054,,"TRUE",,,
26056,26057,,"TRUE",,,
26058,26059,,"TRUE",,,
26062,26063,,"TRUE",,,
26074,26075,,"TRUE",,,
26081,4251,,"TRUE",,,
4265,4266,,"TRUE",,,
26099,26100,,"TRUE",,,
26104,4273,,"TRUE",,,
26105,26106,,"TRUE",,,
26106,26107,,"TRUE",,,
26107,26108,,"TRUE",,,
4275,4276,,"TRUE",,,
26123,26124,,"TRUE",,,
26126,26127,,"TRUE",,,
4288,4289,,"TRUE",,,
26147,26148,,"TRUE",,,
26175,26176,,"TRUE",,,
26183,26184,,"TRUE",,,
26186,26187,,"TRUE",,,
4335,4336,,"TRUE",,,
26206,26207,,"TRUE",,,
26209,26210,,"TRUE",,,
26211,26212,,"TRUE",,,
26216,26217,,"TRUE",,,
26218,26219,,"TRUE",,,
26220,26221,,"TRUE",,,
26226,26227,,"TRUE",,,
4375,4376,,"TRUE",,,
26247,26248,,"TRUE",,,
26265,26266,,"TRUE",,,
26267,26268,,"TRUE",,,
26270,26271,,"TRUE",,,
26283,26284,,"TRUE",,,
26294,26295,,"TRUE",,,
26297,26298,,"TRUE",,,
4437,26302,,"TRUE",,,
26312,26313,,"TRUE",,,
26315,26316,,"TRUE",,,
26319,26320,,"TRUE",,,
26325,26326,,"TRUE",,,
26344,26345,,"TRUE",,,
26355,26356,,"TRUE",,,
4476,26358,,"TRUE",,,
26369,26370,,"TRUE",,,
26390,26391,,"TRUE",,,
26394,26395,,"TRUE",,,
26396,26397,,"TRUE",,,
26407,26408,,"TRUE",,,
26416,4511,,"TRUE",,,
26420,26421,,"TRUE",,,
26435,26436,,"TRUE",,,
26440,26441,,"TRUE",,,
26442,26443,,"TRUE",,,
26445,26446,,"TRUE",,,
26451,26452,,"TRUE",,,
26456,26457,,"TRUE",,,
26458,26459,,"TRUE",,,
26461,26462,,"TRUE",,,
4551,26465,,"TRUE",,,
26466,26467,,"TRUE",,,
26471,26472,,"TRUE",,,
26476,26477,,"TRUE",,,
26478,26479,,"TRUE",,,
26492,4566,,"TRUE",,,
26505,26506,,"TRUE",,,
26508,26509,,"TRUE",,,
26510,26511,,"TRUE",,,
26513,26514,,"TRUE",,,
26521,26522,,"TRUE",,,
26541,26542,,"TRUE",,,
26545,26546,,"TRUE",,,
26559,26560,,"TRUE",,,
26577,4594,,"TRUE",,,
4602,26583,,"TRUE",,,
26583,26584,,"TRUE",,,
26596,26597,,"TRUE",,,
26611,26612,,"TRUE",,,
4625,4626,,"TRUE",,,
26618,26619,,"TRUE",,,
26621,26622,,"TRUE",,,
26654,26655,,"TRUE",,,
26664,26665,,"TRUE",,,
4663,4664,,"TRUE",,,
26669,26670,,"TRUE",,,
26676,26677,,"TRUE",,,
26697,26698,,"TRUE",,,
26709,26710,,"TRUE",,,
26721,26722,,"TRUE",,,
26731,26732,,"TRUE",,,
26758,26759,,"TRUE",,,
26764,26765,,"TRUE",,,
26772,26773,,"TRUE",,,
26780,26781,,"TRUE",,,
26782,26783,,"TRUE",,,
26785,26786,,"TRUE",,,
26818,26819,,"TRUE",,,
26824,26825,,"TRUE",,,
26827,26828,,"TRUE",,,
4756,26835,,"TRUE",,,
4758,4759,,"TRUE",,,
26836,26837,,"TRUE",,,
26838,26839,,"TRUE",,,
26842,26843,,"TRUE",,,
26847,26848,,"TRUE",,,
26857,26858,,"TRUE",,,
26863,26864,,"TRUE",,,
26869,26870,,"TRUE",,,
26872,4770,,"TRUE",,,
4772,26881,,"TRUE",,,
26882,26883,,"TRUE",,,
26884,26885,,"TRUE",,,
26890,26891,,"TRUE",,,
26893,26894,,"TRUE",,,
26906,4783,,"TRUE",,,
26917,26918,,"TRUE",,,
26928,26929,,"TRUE",,,
26930,26931,,"TRUE",,,
26934,26935,,"TRUE",,,
26936,26937,,"TRUE",,,
4820,26944,,"TRUE",,,
4823,26947,,"TRUE",,,
4834,26959,,"TRUE",,,
26961,26962,,"TRUE",,,
26963,26964,,"TRUE",,,
26979,26980,,"TRUE",,,
26987,26988,,"TRUE",,,
27024,27025,,"TRUE",,,
27033,27034,,"TRUE",,,
27034,4901,,"TRUE",,,
27036,27037,,"TRUE",,,
27044,27045,,"TRUE",,,
27058,27059,,"TRUE",,,
27068,27069,,"TRUE",,,
27070,27071,,"TRUE",,,
27071,27072,,"TRUE",,,
27073,27074,,"TRUE",,,
27076,27077,,"TRUE",,,
27079,27080,,"TRUE",,,
27081,27082,,"TRUE",,,
27086,27087,,"TRUE",,,
27093,27094,,"TRUE",,,
27100,27101,,"TRUE",,,
27103,4949,,"TRUE",,,
27104,27105,,"TRUE",,,
27111,4964,,"TRUE",,,
27120,27121,,"TRUE",,,
27122,27123,,"TRUE",,,
27136,27137,,"TRUE",,,
4979,4980,,"TRUE",,,
27148,27149,,"TRUE",,,
27155,27156,,"TRUE",,,
27176,27177,,"TRUE",,,
27177,27178,,"TRUE",,,
27178,27179,,"TRUE",,,
27180,27181,,"TRUE",,,
27182,27183,,"TRUE",,,
27184,27185,,"TRUE",,,
27192,27193,,"TRUE",,,
5036,27197,,"TRUE",,,
27198,27199,,"TRUE",,,
27224,27225,,"TRUE",,,
5061,27230,,"TRUE",,,
5080,5081,,"TRUE",,,
27248,27249,,"TRUE",,,
27256,5089,,"TRUE",,,
27257,27258,,"TRUE",,,
27264,27265,,"TRUE",,,
27283,27284,,"TRUE",,,
27287,27288,,"TRUE",,,
27293,27294,,"TRUE",,,
27314,5129,,"TRUE",,,
27321,27322,,"TRUE",,,
27337,27338,,"TRUE",,,
27339,27340,,"TRUE",,,
27342,27343,,"TRUE",,,
27344,27345,,"TRUE",,,
5165,5166,,"TRUE",,,
27376,27377,,"TRUE",,,
27381,27382,,"TRUE",,,
27389,27390,,"TRUE",,,
27417,27418,,"TRUE",,,
27424,27425,,"TRUE",,,
27433,27434,,"TRUE",,,
5251,27444,,"TRUE",,,
27445,27446,,"TRUE",,,
27449,27450,,"TRUE",,,
27463,27464,,"TRUE",,,
27472,27473,,"TRUE",,,
27474,27475,,"TRUE",,,
27477,27478,,"TRUE",,,
27483,5275,,"TRUE",,,
27491,27492,,"TRUE",,,
27492,27493,,"TRUE",,,
27493,27494,,"TRUE",,,
27500,27501,,"TRUE",,,
27502,5279,,"TRUE",,,
27504,27505,,"TRUE",,,
27506,27507,,"TRUE",,,
27510,27511,,"TRUE",,,
27521,27522,,"TRUE",,,
27523,27524,,"TRUE",,,
27530,27531,,"TRUE",,,
27552,27553,,"TRUE",,,
5312,5313,,"TRUE",,,
27566,27567,,"TRUE",,,
27569,27570,,"TRUE",,,
27585,27586,,"TRUE",,,
27586,27587,,"TRUE",,,
27600,27601,,"TRUE",,,
27606,27607,,"TRUE",,,
27608,5347,,"TRUE",,,
27616,27617,,"TRUE",,,
27618,27619,,"TRUE",,,
27623,27624,,"TRUE",,,
27630,27631,,"TRUE",,,
27632,27633,,"TRUE",,,
27639,27640,,"TRUE",,,
27664,27665,,"TRUE",,,
27669,27670,,"TRUE",,,
27682,5376,,"TRUE",,,
5379,5380,,"TRUE",,,
27695,27696,,"TRUE",,,
27699,27700,,"TRUE",,,
27706,27707,,"TRUE",,,
27719,27720,,"TRUE",,,
27722,27723,,"TRUE",,,
27726,27727,,"TRUE",,,
27728,27729,,"TRUE",,,
27733,27734,,"TRUE",,,
27744,27745,,"TRUE",,,
27748,27749,,"TRUE",,,
27752,27753,,"TRUE",,,
27765,27766,,"TRUE",,,
27772,27773,,"TRUE",,,
27778,27779,,"TRUE",,,
27782,27783,,"TRUE",,,
27786,5475,,"TRUE",,,
27791,27792,,"TRUE",,,
27812,27813,,"TRUE",,,
27816,27817,,"TRUE",,,
5493,5494,,"TRUE",,,
27828,27829,,"TRUE",,,
27843,27844,,"TRUE",,,
27855,27856,,"TRUE",,,
27857,27858,,"TRUE",,,
5518,5519,,"TRUE",,,
27871,27872,,"TRUE",,,
5526,27875,,"TRUE",,,
27885,5529,,"TRUE",,,
27886,27887,,"TRUE",,,
27894,27895,,"TRUE",,,
27896,27897,,"TRUE",,,
27912,27913,,"TRUE",,,
27916,27917,,"TRUE",,,
27920,27921,,"TRUE",,,
27925,27926,,"TRUE",,,
27928,27929,,"TRUE",,,
27946,27947,,"TRUE",,,
27957,27958,,"TRUE",,,
27962,27963,,"TRUE",,,
27965,27966,,"TRUE",,,
27972,27973,,"TRUE",,,
27981,27982,,"TRUE",,,
27988,27989,,"TRUE",,,
27989,27990,,"TRUE",,,
27994,27995,,"TRUE",,,
27998,27999,,"TRUE",,,
27999,28000,,"TRUE",,,
28000,28001,,"TRUE",,,
28041,5628,,"TRUE",,,
28043,28044,,"TRUE",,,
28048,28049,,"TRUE",,,
28057,28058,,"TRUE",,,
28060,28061,,"TRUE",,,
28065,28066,,"TRUE",,,
28072,28073,,"TRUE",,,
5646,28074,,"TRUE",,,
28076,28077,,"TRUE",,,
28079,28080,,"TRUE",,,
28119,28120,,"TRUE",,,
28130,28131,,"TRUE",,,
28133,28134,,"TRUE",,,
28135,28136,,"TRUE",,,
28138,28139,,"TRUE",,,
28144,5702,,"TRUE",,,
28149,28150,,"TRUE",,,
28151,28152,,"TRUE",,,
28173,28174,,"TRUE",,,
28178,28179,,"TRUE",,,
28180,28181,,"TRUE",,,
28186,5744,,"TRUE",,,
5750,28191,,"TRUE",,,
28217,28218,,"TRUE",,,
28224,28225,,"TRUE",,,
28226,28227,,"TRUE",,,
28229,28230,,"TRUE",,,
28232,28233,,"TRUE",,,
28235,28236,,"TRUE",,,
28239,28240,,"TRUE",,,
5799,28244,,"TRUE",,,
28244,5800,,"TRUE",,,
28250,28251,,"TRUE",,,
28252,5806,,"TRUE",,,
28258,28259,,"TRUE",,,
28260,28261,,"TRUE",,,
28262,28263,,"TRUE",,,
28264,28265,,"TRUE",,,
28266,28267,,"TRUE",,,
28274,28275,,"TRUE",,,
28281,28282,,"TRUE",,,
28293,28294,,"TRUE",,,
28299,5835,,"TRUE",,,
5836,28301,,"TRUE",,,
5842,28307,,"TRUE",,,
28316,28317,,"TRUE",,,
28329,28330,,"TRUE",,,
28331,28332,,"TRUE",,,
28336,28337,,"TRUE",,,
28339,28340,,"TRUE",,,
28361,28362,,"TRUE",,,
5894,28367,,"TRUE",,,
28371,28372,,"TRUE",,,
5905,28376,,"TRUE",,,
28377,28378,,"TRUE",,,
28379,28380,,"TRUE",,,
28386,28387,,"TRUE",,,
28390,5917,,"TRUE",,,
5925,5926,,"TRUE",,,
28398,28399,,"TRUE",,,
5938,5939,,"TRUE",,,
28407,28408,,"TRUE",,,
5962,5963,,"TRUE",,,
28422,28423,,"TRUE",,,
28440,28441,,"TRUE",,,
28442,28443,,"TRUE",,,
28444,28445,,"TRUE",,,
28446,28447,,"TRUE",,,
28453,28454,,"TRUE",,,
28458,28459,,"TRUE",,,
28460,28461,,"TRUE",,,
5996,5997,,"TRUE",,,
28464,28465,,"TRUE",,,
28470,28471,,"TRUE",,,
28475,28476,,"TRUE",,,
6005,6006,,"TRUE",,,
28487,28488,,"TRUE",,,
6015,6016,,"TRUE",,,
6017,6018,,"TRUE",,,
6030,28506,,"TRUE",,,
6040,6041,,"TRUE",,,
6042,28524,,"TRUE",,,
6051,28543,,"TRUE",,,
28545,6053,,"TRUE",,,
28547,28548,,"TRUE",,,
28551,28552,,"TRUE",,,
28555,6064,,"TRUE",,,
6066,28558,,"TRUE",,,
28570,28571,,"TRUE",,,
28573,28574,,"TRUE",,,
28578,28579,,"TRUE",,,
28580,28581,,"TRUE",,,
28582,28583,,"TRUE",,,
6083,28591,,"TRUE",,,
28594,28595,,"TRUE",,,
28596,28597,,"TRUE",,,
28602,6089,,"TRUE",,,
28604,28605,,"TRUE",,,
28617,28618,,"TRUE",,,
28619,28620,,"TRUE",,,
28621,28622,,"TRUE",,,
28630,28631,,"TRUE",,,
28633,28634,,"TRUE",,,
28637,28638,,"TRUE",,,
28641,28642,,"TRUE",,,
28647,28648,,"TRUE",,,
28649,28650,,"TRUE",,,
28650,6105,,"TRUE",,,
28656,28657,,"TRUE",,,
28668,28669,,"TRUE",,,
28676,28677,,"TRUE",,,
28695,28696,,"TRUE",,,
28700,6125,,"TRUE",,,
28705,28706,,"TRUE",,,
28708,28709,,"TRUE",,,
28712,28713,,"TRUE",,,
28735,28736,,"TRUE",,,
28737,28738,,"TRUE",,,
28744,28745,,"TRUE",,,
28752,28753,,"TRUE",,,
28755,6145,,"TRUE",,,
28758,28759,,"TRUE",,,
28760,28761,,"TRUE",,,
28765,28766,,"TRUE",,,
28776,28777,,"TRUE",,,
6165,6166,,"TRUE",,,
28798,28799,,"TRUE",,,
28805,28806,,"TRUE",,,
28807,28808,,"TRUE",,,
6177,28810,,"TRUE",,,
28811,28812,,"TRUE",,,
28812,28813,,"TRUE",,,
6178,6179,,"TRUE",,,
6185,6186,,"TRUE",,,
28815,28816,,"TRUE",,,
28822,28823,,"TRUE",,,
28824,6194,,"TRUE",,,
28827,28828,,"TRUE",,,
28834,6197,,"TRUE",,,
28838,28839,,"TRUE",,,
28845,6209,,"TRUE",,,
6221,28848,,"TRUE",,,
28855,28856,,"TRUE",,,
6236,6237,,"TRUE",,,
28868,28869,,"TRUE",,,
28881,28882,,"TRUE",,,
28893,28894,,"TRUE",,,
28898,28899,,"TRUE",,,
6257,6258,,"TRUE",,,
28913,28914,,"TRUE",,,
28934,28935,,"TRUE",,,
28948,28949,,"TRUE",,,
28963,28964,,"TRUE",,,
28970,28971,,"TRUE",,,
28983,28984,,"TRUE",,,
28986,28987,,"TRUE",,,
29000,29001,,"TRUE",,,
29014,29015,,"TRUE",,,
29016,29017,,"TRUE",,,
6303,29019,,"TRUE",,,
29023,29024,,"TRUE",,,
29026,29027,,"TRUE",,,
29039,6311,,"TRUE",,,
6311,6312,,"TRUE",,,
29043,29044,,"TRUE",,,
29059,29060,,"TRUE",,,
29065,29066,,"TRUE",,,
29070,29071,,"TRUE",,,
29074,29075,,"TRUE",,,
6335,6336,,"TRUE",,,
29091,29092,,"TRUE",,,
29093,29094,,"TRUE",,,
29103,29104,,"TRUE",,,
29106,29107,,"TRUE",,,
29126,29127,,"TRUE",,,
29135,29136,,"TRUE",,,
29137,29138,,"TRUE",,,
6379,6380,,"TRUE",,,
29147,29148,,"TRUE",,,
29156,29157,,"TRUE",,,
29171,29172,,"TRUE",,,
6409,29182,,"TRUE",,,
29183,29184,,"TRUE",,,
29195,29196,,"TRUE",,,
29205,29206,,"TRUE",,,
29211,29212,,"TRUE",,,
29219,29220,,"TRUE",,,
29223,29224,,"TRUE",,,
29229,29230,,"TRUE",,,
6448,29232,,"TRUE",,,
29235,29236,,"TRUE",,,
29237,29238,,"TRUE",,,
29242,29243,,"TRUE",,,
29247,29248,,"TRUE",,,
29251,29252,,"TRUE",,,
29255,29256,,"TRUE",,,
29273,6479,,"TRUE",,,
29274,29275,,"TRUE",,,
29302,29303,,"TRUE",,,
29318,29319,,"TRUE",,,
29327,29328,,"TRUE",,,
29336,29337,,"TRUE",,,
29342,29343,,"TRUE",,,
29354,29355,,"TRUE",,,
29357,6517,,"TRUE",,,
29362,29363,,"TRUE",,,
29366,29367,,"TRUE",,,
29368,29369,,"TRUE",,,
29370,29371,,"TRUE",,,
29372,6526,,"TRUE",,,
29379,29380,,"TRUE",,,
29384,6534,,"TRUE",,,
29394,29395,,"TRUE",,,
6536,6537,,"TRUE",,,
29398,29399,,"TRUE",,,
29403,29404,,"TRUE",,,
29405,6541,,"TRUE",,,
6545,6546,,"TRUE",,,
29411,29412,,"TRUE",,,
29419,6550,,"TRUE",,,
29436,29437,,"TRUE",,,
29443,29444,,"TRUE",,,
29457,29458,,"TRUE",,,
29461,29462,,"TRUE",,,
29464,29465,,"TRUE",,,
29495,29496,,"TRUE",,,
6603,6604,,"TRUE",,,
29507,29508,,"TRUE",,,
29513,29514,,"TRUE",,,
29518,29519,,"TRUE",,,
29520,29521,,"TRUE",,,
29531,29532,,"TRUE",,,
29533,29534,,"TRUE",,,
6625,29541,,"TRUE",,,
29563,29564,,"TRUE",,,
29564,29565,,"TRUE",,,
29583,29584,,"TRUE",,,
29595,6661,,"TRUE",,,
29610,29611,,"TRUE",,,
29615,29616,,"TRUE",,,
29617,29618,,"TRUE",,,
29623,29624,,"TRUE",,,
29628,29629,,"TRUE",,,
29634,29635,,"TRUE",,,
29646,29647,,"TRUE",,,
29654,29655,,"TRUE",,,
29662,29663,,"TRUE",,,
29665,29666,,"TRUE",,,
29668,29669,,"TRUE",,,
29679,29680,,"TRUE",,,
29691,29692,,"TRUE",,,
29692,29693,,"TRUE",,,
29693,29694,,"TRUE",,,
29697,29698,,"TRUE",,,
29701,6708,,"TRUE",,,
6718,6719,,"TRUE",,,
6724,6725,,"TRUE",,,
29723,29724,,"TRUE",,,
29750,29751,,"TRUE",,,
29759,29760,,"TRUE",,,
6743,6744,,"TRUE",,,
29769,29770,,"TRUE",,,
29778,6762,,"TRUE",,,
6765,6766,,"TRUE",,,
29785,29786,,"TRUE",,,
29788,29789,,"TRUE",,,
6775,6776,,"TRUE",,,
29795,29796,,"TRUE",,,
29797,29798,,"TRUE",,,
29801,29802,,"TRUE",,,
29802,29803,,"TRUE",,,
29815,29816,,"TRUE",,,
6784,29818,,"TRUE",,,
29822,29823,,"TRUE",,,
29827,29828,,"TRUE",,,
29871,29872,,"TRUE",,,
29875,29876,,"TRUE",,,
29877,29878,,"TRUE",,,
6816,6817,,"TRUE",,,
29880,29881,,"TRUE",,,
29884,29885,,"TRUE",,,
6825,6826,,"TRUE",,,
29894,29895,,"TRUE",,,
29897,29898,,"TRUE",,,
29901,29902,,"TRUE",,,
29910,29911,,"TRUE",,,
29916,29917,,"TRUE",,,
29922,6849,,"TRUE",,,
29924,29925,,"TRUE",,,
29927,29928,,"TRUE",,,
6854,6855,,"TRUE",,,
29930,29931,,"TRUE",,,
29946,29947,,"TRUE",,,
29948,29949,,"TRUE",,,
29954,29955,,"TRUE",,,
29961,29962,,"TRUE",,,
29966,29967,,"TRUE",,,
29969,29970,,"TRUE",,,
29986,29987,,"TRUE",,,
29994,29995,,"TRUE",,,
29998,29999,,"TRUE",,,
6918,30001,,"TRUE",,,
30004,30005,,"TRUE",,,
30009,30010,,"TRUE",,,
30019,30020,,"TRUE",,,
30026,30027,,"TRUE",,,
30042,30043,,"TRUE",,,
30044,30045,,"TRUE",,,
30050,30051,,"TRUE",,,
30053,30054,,"TRUE",,,
30059,30060,,"TRUE",,,
30074,30075,,"TRUE",,,
30082,30083,,"TRUE",,,
30108,30109,,"TRUE",,,
30118,30119,,"TRUE",,,
7013,30125,,"TRUE",,,
7019,7020,,"TRUE",,,
30129,30130,,"TRUE",,,
30134,30135,,"TRUE",,,
7033,30141,,"TRUE",,,
30146,30147,,"TRUE",,,
30156,30157,,"TRUE",,,
30163,30164,,"TRUE",,,
30166,30167,,"TRUE",,,
30171,30172,,"TRUE",,,
30177,30178,,"TRUE",,,
30179,7055,,"TRUE",,,
7058,7059,,"TRUE",,,
30185,30186,,"TRUE",,,
30191,30192,,"TRUE",,,
30193,30194,,"TRUE",,,
30195,30196,,"TRUE",,,
30203,30204,,"TRUE",,,
30205,30206,,"TRUE",,,
30207,30208,,"TRUE",,,
7075,7076,,"TRUE",,,
30215,7081,,"TRUE",,,
30217,30218,,"TRUE",,,
30221,30222,,"TRUE",,,
30230,30231,,"TRUE",,,
30232,30233,,"TRUE",,,
30238,30239,,"TRUE",,,
30256,7119,,"TRUE",,,
30259,7122,,"TRUE",,,
30264,30265,,"TRUE",,,
30269,30270,,"TRUE",,,
30290,30291,,"TRUE",,,
30310,30311,,"TRUE",,,
30314,30315,,"TRUE",,,
30320,30321,,"TRUE",,,
30337,7183,,"TRUE",,,
30342,7187,,"TRUE",,,
7187,30343,,"TRUE",,,
30349,30350,,"TRUE",,,
30354,30355,,"TRUE",,,
30359,30360,,"TRUE",,,
7211,7212,,"TRUE",,,
30367,30368,,"TRUE",,,
30383,30384,,"TRUE",,,
30385,30386,,"TRUE",,,
7219,30389,,"TRUE",,,
30392,7233,,"TRUE",,,
30402,30403,,"TRUE",,,
30414,7252,,"TRUE",,,
30423,30424,,"TRUE",,,
30441,7270,,"TRUE",,,
30447,30448,,"TRUE",,,
30451,30452,,"TRUE",,,
30454,30455,,"TRUE",,,
30468,30469,,"TRUE",,,
30494,30495,,"TRUE",,,
30504,30505,,"TRUE",,,
30506,30507,,"TRUE",,,
30516,30517,,"TRUE",,,
30520,7331,,"TRUE",,,
30524,30525,,"TRUE",,,
7338,7339,,"TRUE",,,
30537,30538,,"TRUE",,,
7361,30541,,"TRUE",,,
7362,7363,,"TRUE",,,
30547,30548,,"TRUE",,,
30549,30550,,"TRUE",,,
30562,30563,,"TRUE",,,
7388,30570,,"TRUE",,,
30572,30573,,"TRUE",,,
30579,7391,,"TRUE",,,
30583,30584,,"TRUE",,,
30585,30586,,"TRUE",,,
30588,30589,,"TRUE",,,
7394,7395,,"TRUE",,,
30602,30603,,"TRUE",,,
30605,30606,,"TRUE",,,
30608,30609,,"TRUE",,,
30621,30622,,"TRUE",,,
30622,30623,,"TRUE",,,
30623,7412,,"TRUE",,,
7418,7419,,"TRUE",,,
30640,7424,,"TRUE",,,
30645,30646,,"TRUE",,,
30649,30650,,"TRUE",,,
7435,30654,,"TRUE",,,
30660,30661,,"TRUE",,,
30669,30670,,"TRUE",,,
30672,30673,,"TRUE",,,
30679,30680,,"TRUE",,,
30681,30682,,"TRUE",,,
7462,7463,,"TRUE",,,
30701,30702,,"TRUE",,,
30711,30712,,"TRUE",,,
30715,30716,,"TRUE",,,
30724,30725,,"TRUE",,,
30735,30736,,"TRUE",,,
30745,30746,,"TRUE",,,
30753,30754,,"TRUE",,,
30755,30756,,"TRUE",,,
30761,30762,,"TRUE",,,
30767,30768,,"TRUE",,,
30770,30771,,"TRUE",,,
30778,30779,,"TRUE",,,
30780,30781,,"TRUE",,,
30782,7510,,"TRUE",,,
30783,7513,,"TRUE",,,
30786,30787,,"TRUE",,,
30794,30795,,"TRUE",,,
7516,7517,,"TRUE",,,
30806,30807,,"TRUE",,,
30816,30817,,"TRUE",,,
30826,30827,,"TRUE",,,
30837,30838,,"TRUE",,,
30847,30848,,"TRUE",,,
30851,30852,,"TRUE",,,
30853,30854,,"TRUE",,,
7556,30873,,"TRUE",,,
30876,30877,,"TRUE",,,
30883,30884,,"TRUE",,,
30887,30888,,"TRUE",,,
30890,30891,,"TRUE",,,
30893,30894,,"TRUE",,,
30902,30903,,"TRUE",,,
30904,30905,,"TRUE",,,
30908,30909,,"TRUE",,,
30916,30917,,"TRUE",,,
30920,30921,,"TRUE",,,
30927,30928,,"TRUE",,,
30936,30937,,"TRUE",,,
30941,30942,,"TRUE",,,
30945,30946,,"TRUE",,,
30948,30949,,"TRUE",,,
30955,30956,,"TRUE",,,
30959,30960,,"TRUE",,,
7624,7625,,"TRUE",,,
30963,30964,,"TRUE",,,
30976,30977,,"TRUE",,,
30996,30997,,"TRUE",,,
31002,31003,,"TRUE",,,
31004,31005,,"TRUE",,,
31015,31016,,"TRUE",,,
31022,31023,,"TRUE",,,
31027,31028,,"TRUE",,,
7682,7683,,"TRUE",,,
31034,31035,,"TRUE",,,
31037,31038,,"TRUE",,,
7693,31044,,"TRUE",,,
31056,31057,,"TRUE",,,
31058,31059,,"TRUE",,,
31062,31063,,"TRUE",,,
31064,31065,,"TRUE",,,
31079,31080,,"TRUE",,,
31090,31091,,"TRUE",,,
31093,31094,,"TRUE",,,
7740,7741,,"TRUE",,,
31112,31113,,"TRUE",,,
31122,31123,,"TRUE",,,
31128,31129,,"TRUE",,,
31139,31140,,"TRUE",,,
31140,31141,,"TRUE",,,
7796,7797,,"TRUE",,,
31169,31170,,"TRUE",,,
31170,31171,,"TRUE",,,
7817,7818,,"TRUE",,,
31172,31173,,"TRUE",,,
31175,31176,,"TRUE",,,
7831,31189,,"TRUE",,,
31195,31196,,"TRUE",,,
31198,31199,,"TRUE",,,
31212,7849,,"TRUE",,,
31219,7851,,"TRUE",,,
31228,31229,,"TRUE",,,
31238,31239,,"TRUE",,,
31240,31241,,"TRUE",,,
31242,31243,,"TRUE",,,
7879,31255,,"TRUE",,,
31256,31257,,"TRUE",,,
31260,31261,,"TRUE",,,
7897,7898,,"TRUE",,,
31280,31281,,"TRUE",,,
31285,31286,,"TRUE",,,
31287,31288,,"TRUE",,,
31298,7929,,"TRUE",,,
31299,31300,,"TRUE",,,
31309,31310,,"TRUE",,,
31311,31312,,"TRUE",,,
31321,31322,,"TRUE",,,
7954,7955,,"TRUE",,,
7970,31346,,"TRUE",,,
31347,31348,,"TRUE",,,
31354,31355,,"TRUE",,,
31363,31364,,"TRUE",,,
31368,31369,,"TRUE",,,
31375,31376,,"TRUE",,,
31377,31378,,"TRUE",,,
31379,31380,,"TRUE",,,
8000,31389,,"TRUE",,,
8007,8008,,"TRUE",,,
31398,31399,,"TRUE",,,
31403,31404,,"TRUE",,,
8017,8018,,"TRUE",,,
8018,31409,,"TRUE",,,
31410,31411,,"TRUE",,,
31435,31436,,"TRUE",,,
31439,31440,,"TRUE",,,
31443,31444,,"TRUE",,,
31448,31449,,"TRUE",,,
31452,31453,,"TRUE",,,
31459,8051,,"TRUE",,,
31460,31461,,"TRUE",,,
31485,31486,,"TRUE",,,
31495,31496,,"TRUE",,,
31499,31500,,"TRUE",,,
8076,31501,,"TRUE",,,
31504,31505,,"TRUE",,,
31509,31510,,"TRUE",,,
31529,31530,,"TRUE",,,
31536,31537,,"TRUE",,,
31542,8117,,"TRUE",,,
31545,31546,,"TRUE",,,
31550,31551,,"TRUE",,,
31559,31560,,"TRUE",,,
31560,8126,,"TRUE",,,
31561,31562,,"TRUE",,,
31566,31567,,"TRUE",,,
31568,31569,,"TRUE",,,
31573,31574,,"TRUE",,,
31575,31576,,"TRUE",,,
8153,31580,,"TRUE",,,
8176,31597,,"TRUE",,,
31598,31599,,"TRUE",,,
31601,8177,,"TRUE",,,
31613,31614,,"TRUE",,,
31615,31616,,"TRUE",,,
31618,31619,,"TRUE",,,
8193,8194,,"TRUE",,,
31634,31635,,"TRUE",,,
31642,31643,,"TRUE",,,
8221,31644,,"TRUE",,,
31645,31646,,"TRUE",,,
31654,31655,,"TRUE",,,
31663,31664,,"TRUE",,,
8230,31666,,"TRUE",,,
31675,31676,,"TRUE",,,
31684,31685,,"TRUE",,,
8268,31688,,"TRUE",,,
31689,31690,,"TRUE",,,
8280,31694,,"TRUE",,,
31696,31697,,"TRUE",,,
8288,31702,,"TRUE",,,
31702,31703,,"TRUE",,,
31708,31709,,"TRUE",,,
31711,31712,,"TRUE",,,
31715,31716,,"TRUE",,,
31728,8308,,"TRUE",,,
31752,31753,,"TRUE",,,
31754,31755,,"TRUE",,,
31779,31780,,"TRUE",,,
31785,8351,,"TRUE",,,
31794,31795,,"TRUE",,,
31802,31803,,"TRUE",,,
31804,8357,,"TRUE",,,
31813,31814,,"TRUE",,,
31815,31816,,"TRUE",,,
31818,31819,,"TRUE",,,
31821,31822,,"TRUE",,,
31826,31827,,"TRUE",,,
31834,31835,,"TRUE",,,
31835,31836,,"TRUE",,,
31836,31837,,"TRUE",,,
31844,31845,,"TRUE",,,
31861,31862,,"TRUE",,,
31862,8389,,"TRUE",,,
31863,31864,,"TRUE",,,
31868,31869,,"TRUE",,,
31892,31893,,"TRUE",,,
8410,31894,,"TRUE",,,
31898,31899,,"TRUE",,,
8412,8413,,"TRUE",,,
31900,31901,,"TRUE",,,
8418,31903,,"TRUE",,,
31905,31906,,"TRUE",,,
31907,31909,,"TRUE",,,
8425,31913,,"TRUE",,,
31919,31920,,"TRUE",,,
31921,31922,,"TRUE",,,
31926,31927,,"TRUE",,,
31932,8437,,"TRUE",,,
31952,31953,,"TRUE",,,
31954,31955,,"TRUE",,,
31956,31957,,"TRUE",,,
31962,31963,,"TRUE",,,
31981,31982,,"TRUE",,,
31984,31985,,"TRUE",,,
31988,31989,,"TRUE",,,
31998,31999,,"TRUE",,,
32003,32004,,"TRUE",,,
32007,32008,,"TRUE",,,
32009,32010,,"TRUE",,,
32020,32021,,"TRUE",,,
32025,32026,,"TRUE",,,
32042,32043,,"TRUE",,,
32046,32047,,"TRUE",,,
8488,8489,,"TRUE",,,
32050,32051,,"TRUE",,,
8497,32059,,"TRUE",,,
32059,32060,,"TRUE",,,
32060,8498,,"TRUE",,,
32064,32065,,"TRUE",,,
32068,32069,,"TRUE",,,
32073,32074,,"TRUE",,,
32077,32078,,"TRUE",,,
32079,32080,,"TRUE",,,
32083,32084,,"TRUE",,,
32087,32088,,"TRUE",,,
32102,32103,,"TRUE",,,
32111,32112,,"TRUE",,,
32119,32120,,"TRUE",,,
32121,32122,,"TRUE",,,
32134,32135,,"TRUE",,,
32141,32142,,"TRUE",,,
32149,32150,,"TRUE",,,
32160,32161,,"TRUE",,,
32165,32166,,"TRUE",,,
32175,32176,,"TRUE",,,
32184,32185,,"TRUE",,,
8581,32189,,"TRUE",,,
32207,32208,,"TRUE",,,
32208,32209,,"TRUE",,,
32211,32212,,"TRUE",,,
32215,32216,,"TRUE",,,
32217,32218,,"TRUE",,,
8604,8605,,"TRUE",,,
32224,32225,,"TRUE",,,
32231,32232,,"TRUE",,,
32245,32246,,"TRUE",,,
32273,32274,,"TRUE",,,
8636,32288,,"TRUE",,,
32289,32290,,"TRUE",,,
32291,32292,,"TRUE",,,
32302,32303,,"TRUE",,,
32305,32306,,"TRUE",,,
32309,32310,,"TRUE",,,
32317,32318,,"TRUE",,,
32321,32322,,"TRUE",,,
32324,32325,,"TRUE",,,
32328,8664,,"TRUE",,,
32333,32334,,"TRUE",,,
32337,32338,,"TRUE",,,
8696,8697,,"TRUE",,,
32384,32385,,"TRUE",,,
32392,32393,,"TRUE",,,
32406,32407,,"TRUE",,,
32415,32416,,"TRUE",,,
32417,32418,,"TRUE",,,
32431,32432,,"TRUE",,,
32453,32454,,"TRUE",,,
32456,32457,,"TRUE",,,
32468,32469,,"TRUE",,,
32476,32477,,"TRUE",,,
32478,32479,,"TRUE",,,
32481,32482,,"TRUE",,,
8755,32485,,"TRUE",,,
32502,32503,,"TRUE",,,
32504,32505,,"TRUE",,,
32519,32520,,"TRUE",,,
32521,32522,,"TRUE",,,
32524,32525,,"TRUE",,,
32527,32528,,"TRUE",,,
32537,32538,,"TRUE",,,
32538,32539,,"TRUE",,,
32562,32563,,"TRUE",,,
32569,32570,,"TRUE",,,
8805,32576,,"TRUE",,,
8806,32581,,"TRUE",,,
32583,32584,,"TRUE",,,
32600,32601,,"TRUE",,,
32601,8815,,"TRUE",,,
32604,32605,,"TRUE",,,
32644,32645,,"TRUE",,,
32648,32649,,"TRUE",,,
32656,32657,,"TRUE",,,
32663,32664,,"TRUE",,,
32670,32671,,"TRUE",,,
32686,32687,,"TRUE",,,
32694,32695,,"TRUE",,,
32721,32722,,"TRUE",,,
32723,32724,,"TRUE",,,
32727,32728,,"TRUE",,,
32736,32737,,"TRUE",,,
32760,32761,,"TRUE",,,
32776,32777,,"TRUE",,,
8937,8938,,"TRUE",,,
32803,32804,,"TRUE",,,
32805,32806,,"TRUE",,,
32808,32809,,"TRUE",,,
32814,32815,,"TRUE",,,
32816,32817,,"TRUE",,,
32829,32830,,"TRUE",,,
32831,32832,,"TRUE",,,
32841,32842,,"TRUE",,,
32855,32856,,"TRUE",,,
9013,32868,,"TRUE",,,
32877,32878,,"TRUE",,,
32895,32896,,"TRUE",,,
32907,32908,,"TRUE",,,
9027,32911,,"TRUE",,,
9031,32915,,"TRUE",,,
9032,9033,,"TRUE",,,
32922,32923,,"TRUE",,,
32927,32928,,"TRUE",,,
32931,32932,,"TRUE",,,
32937,32938,,"TRUE",,,
32942,32943,,"TRUE",,,
32971,32972,,"TRUE",,,
32976,32977,,"TRUE",,,
32977,32978,,"TRUE",,,
32979,32980,,"TRUE",,,
32984,32985,,"TRUE",,,
32997,32998,,"TRUE",,,
33000,33001,,"TRUE",,,
9077,9078,,"TRUE",,,
33015,33016,,"TRUE",,,
33026,33027,,"TRUE",,,
9081,9082,,"TRUE",,,
33031,33032,,"TRUE",,,
33033,33034,,"TRUE",,,
9095,9096,,"TRUE",,,
33046,33047,,"TRUE",,,
33051,33052,,"TRUE",,,
33071,33072,,"TRUE",,,
33076,33077,,"TRUE",,,
33081,33082,,"TRUE",,,
33099,33100,,"TRUE",,,
33107,33108,,"TRUE",,,
33112,33113,,"TRUE",,,
33130,33131,,"TRUE",,,
33134,33135,,"TRUE",,,
33136,33137,,"TRUE",,,
33138,33139,,"TRUE",,,
33145,33146,,"TRUE",,,
33148,33149,,"TRUE",,,
9160,9161,,"TRUE",,,
33165,33166,,"TRUE",,,
33174,33175,,"TRUE",,,
33181,33182,,"TRUE",,,
33188,33189,,"TRUE",,,
33203,33204,,"TRUE",,,
33209,33210,,"TRUE",,,
33219,33220,,"TRUE",,,
33225,33226,,"TRUE",,,
9211,9212,,"TRUE",,,
33232,33233,,"TRUE",,,
33236,33237,,"TRUE",,,
33239,33240,,"TRUE",,,
33242,33243,,"TRUE",,,
33246,9215,,"TRUE",,,
33248,33249,,"TRUE",,,
33252,33253,,"TRUE",,,
9222,9223,,"TRUE",,,
33269,33270,,"TRUE",,,
33271,33272,,"TRUE",,,
33275,33276,,"TRUE",,,
33280,33281,,"TRUE",,,
9242,33291,,"TRUE",,,
33297,33298,,"TRUE",,,
33305,33306,,"TRUE",,,
33314,33315,,"TRUE",,,
33321,33322,,"TRUE",,,
33322,33323,,"TRUE",,,
33323,33324,,"TRUE",,,
33325,33326,,"TRUE",,,
33330,33331,,"TRUE",,,
33333,33334,,"TRUE",,,
33336,33337,,"TRUE",,,
33340,33341,,"TRUE",,,
33342,33343,,"TRUE",,,
9272,9273,,"TRUE",,,
33353,33354,,"TRUE",,,
33360,33361,,"TRUE",,,
33364,33365,,"TRUE",,,
9280,9281,,"TRUE",,,
33371,33372,,"TRUE",,,
33377,33378,,"TRUE",,,
33380,33381,,"TRUE",,,
9287,9288,,"TRUE",,,
33385,33386,,"TRUE",,,
33388,33389,,"TRUE",,,
33391,33392,,"TRUE",,,
33394,33395,,"TRUE",,,
33396,33397,,"TRUE",,,
33403,9295,,"TRUE",,,
33414,33415,,"TRUE",,,
9306,9307,,"TRUE",,,
33421,33422,,"TRUE",,,
33432,9320,,"TRUE",,,
33435,33436,,"TRUE",,,
33449,33450,,"TRUE",,,
33459,33460,,"TRUE",,,
33471,9343,,"TRUE",,,
33472,33473,,"TRUE",,,
33475,33476,,"TRUE",,,
33481,33482,,"TRUE",,,
33486,33487,,"TRUE",,,
33497,33498,,"TRUE",,,
33500,33501,,"TRUE",,,
9366,9367,,"TRUE",,,
33506,33507,,"TRUE",,,
9370,9371,,"TRUE",,,
9373,9374,,"TRUE",,,
33514,33515,,"TRUE",,,
33522,33523,,"TRUE",,,
33524,33525,,"TRUE",,,
33526,33527,,"TRUE",,,
9389,33533,,"TRUE",,,
33536,33537,,"TRUE",,,
33545,33546,,"TRUE",,,
33551,33552,,"TRUE",,,
33553,33554,,"TRUE",,,
33555,33556,,"TRUE",,,
33559,33560,,"TRUE",,,
33564,33565,,"TRUE",,,
33568,33569,,"TRUE",,,
33580,33581,,"TRUE",,,
33593,33594,,"TRUE",,,
33596,33597,,"TRUE",,,
33603,33604,,"TRUE",,,
33613,33614,,"TRUE",,,
33615,33616,,"TRUE",,,
33623,33624,,"TRUE",,,
33626,33627,,"TRUE",,,
33635,33636,,"TRUE",,,
33639,33640,,"TRUE",,,
9455,9456,,"TRUE",,,
33646,33647,,"TRUE",,,
33650,33651,,"TRUE",,,
33653,33654,,"TRUE",,,
9473,9474,,"TRUE",,,
33683,33684,,"TRUE",,,
33686,33687,,"TRUE",,,
33688,33689,,"TRUE",,,
33693,33694,,"TRUE",,,
33696,33697,,"TRUE",,,
9484,9485,,"TRUE",,,
33713,33714,,"TRUE",,,
33727,33728,,"TRUE",,,
33738,33739,,"TRUE",,,
33748,9503,,"TRUE",,,
33765,33766,,"TRUE",,,
9519,33768,,"TRUE",,,
33773,33774,,"TRUE",,,
33779,33780,,"TRUE",,,
33782,33783,,"TRUE",,,
9537,9538,,"TRUE",,,
33814,33815,,"TRUE",,,
33816,33817,,"TRUE",,,
33826,33827,,"TRUE",,,
9578,33853,,"TRUE",,,
33854,33855,,"TRUE",,,
33860,33861,,"TRUE",,,
33864,9581,,"TRUE",,,
9581,33865,,"TRUE",,,
33868,33869,,"TRUE",,,
33887,33888,,"TRUE",,,
33889,33890,,"TRUE",,,
33891,33892,,"TRUE",,,
33896,33897,,"TRUE",,,
33898,33899,,"TRUE",,,
9596,33900,,"TRUE",,,
9605,9606,,"TRUE",,,
33918,33919,,"TRUE",,,
33923,33924,,"TRUE",,,
33926,33927,,"TRUE",,,
9608,9609,,"TRUE",,,
33936,33937,,"TRUE",,,
33938,33939,,"TRUE",,,
33943,33944,,"TRUE",,,
33964,33965,,"TRUE",,,
33973,33974,,"TRUE",,,
9650,33989,,"TRUE",,,
34005,34006,,"TRUE",,,
34010,34011,,"TRUE",,,
34013,34014,,"TRUE",,,
34028,34029,,"TRUE",,,
34041,9681,,"TRUE",,,
9690,9691,,"TRUE",,,
9693,9694,,"TRUE",,,
34067,34068,,"TRUE",,,
34070,34071,,"TRUE",,,
9706,9707,,"TRUE",,,
34077,34078,,"TRUE",,,
34080,34081,,"TRUE",,,
34082,34083,,"TRUE",,,
34094,34095,,"TRUE",,,
9725,9726,,"TRUE",,,
34100,34101,,"TRUE",,,
34105,34106,,"TRUE",,,
34121,34122,,"TRUE",,,
34125,34126,,"TRUE",,,
34127,34128,,"TRUE",,,
34141,34142,,"TRUE",,,
34161,34162,,"TRUE",,,
34171,34172,,"TRUE",,,
34172,9758,,"TRUE",,,
34193,34194,,"TRUE",,,
34196,34197,,"TRUE",,,
34199,34200,,"TRUE",,,
34218,34219,,"TRUE",,,
34220,34221,,"TRUE",,,
34222,34223,,"TRUE",,,
34239,34240,,"TRUE",,,
9836,34250,,"TRUE",,,
34252,34253,,"TRUE",,,
34262,34263,,"TRUE",,,
34263,34264,,"TRUE",,,
34264,34265,,"TRUE",,,
34275,34276,,"TRUE",,,
9857,9858,,"TRUE",,,
9859,34279,,"TRUE",,,
34281,34282,,"TRUE",,,
34289,34290,,"TRUE",,,
34291,34292,,"TRUE",,,
34296,34297,,"TRUE",,,
34298,34299,,"TRUE",,,
34309,34310,,"TRUE",,,
34310,34311,,"TRUE",,,
34312,34313,,"TRUE",,,
34341,34342,,"TRUE",,,
34348,34349,,"TRUE",,,
34350,34351,,"TRUE",,,
34354,34355,,"TRUE",,,
34355,34356,,"TRUE",,,
34356,34357,,"TRUE",,,
34358,9919,,"TRUE",,,
34369,34370,,"TRUE",,,
34371,34372,,"TRUE",,,
34379,34380,,"TRUE",,,
34381,34382,,"TRUE",,,
9932,9933,,"TRUE",,,
34385,34386,,"TRUE",,,
34391,34392,,"TRUE",,,
34406,9965,,"TRUE",,,
34407,9966,,"TRUE",,,
34414,34415,,"TRUE",,,
34416,34417,,"TRUE",,,
34427,34428,,"TRUE",,,
34448,34449,,"TRUE",,,
34456,34457,,"TRUE",,,
34457,34458,,"TRUE",,,
34458,34459,,"TRUE",,,
10006,10007,,"TRUE",,,
10009,34463,,"TRUE",,,
34463,34464,,"TRUE",,,
34477,34478,,"TRUE",,,
34484,34485,,"TRUE",,,
34486,34487,,"TRUE",,,
34489,34490,,"TRUE",,,
34491,34492,,"TRUE",,,
34498,34499,,"TRUE",,,
34502,34503,,"TRUE",,,
34516,34517,,"TRUE",,,
10040,10041,,"TRUE",,,
34518,34519,,"TRUE",,,
34521,34522,,"TRUE",,,
34532,34533,,"TRUE",,,
34536,34537,,"TRUE",,,
34539,34540,,"TRUE",,,
34556,34557,,"TRUE",,,
34562,34563,,"TRUE",,,
34564,34565,,"TRUE",,,
34566,34567,,"TRUE",,,
34568,34569,,"TRUE",,,
34579,34580,,"TRUE",,,
34582,34583,,"TRUE",,,
10088,10089,,"TRUE",,,
34591,34592,,"TRUE",,,
34598,34599,,"TRUE",,,
34633,34634,,"TRUE",,,
34646,34647,,"TRUE",,,
34662,34663,,"TRUE",,,
34666,34667,,"TRUE",,,
34672,34673,,"TRUE",,,
10134,10135,,"TRUE",,,
34678,34679,,"TRUE",,,
10142,10143,,"TRUE",,,
34697,34698,,"TRUE",,,
34701,34702,,"TRUE",,,
34711,34712,,"TRUE",,,
34724,34725,,"TRUE",,,
34737,34738,,"TRUE",,,
34740,34741,,"TRUE",,,
34747,34748,,"TRUE",,,
34768,34769,,"TRUE",,,
34772,34773,,"TRUE",,,
34776,34777,,"TRUE",,,
34785,34786,,"TRUE",,,
34792,10224,,"TRUE",,,
34819,34820,,"TRUE",,,
34828,34829,,"TRUE",,,
34837,34838,,"TRUE",,,
34840,34841,,"TRUE",,,
34849,34850,,"TRUE",,,
10281,10282,,"TRUE",,,
34873,34874,,"TRUE",,,
34884,34885,,"TRUE",,,
34887,34888,,"TRUE",,,
34889,34890,,"TRUE",,,
10303,10304,,"TRUE",,,
34898,34899,,"TRUE",,,
34901,34902,,"TRUE",,,
34904,34905,,"TRUE",,,
10333,10334,,"TRUE",,,
34919,34920,,"TRUE",,,
34920,10340,,"TRUE",,,
10340,10341,,"TRUE",,,
10352,34935,,"TRUE",,,
34938,34939,,"TRUE",,,
34944,10361,,"TRUE",,,
34957,34958,,"TRUE",,,
34964,34965,,"TRUE",,,
34980,34981,,"TRUE",,,
34982,34983,,"TRUE",,,
10397,10398,,"TRUE",,,
34992,34993,,"TRUE",,,
35018,35019,,"TRUE",,,
35028,35029,,"TRUE",,,
35045,35046,,"TRUE",,,
35047,35048,,"TRUE",,,
35055,35056,,"TRUE",,,
35060,35061,,"TRUE",,,
35069,35070,,"TRUE",,,
35109,10471,,"TRUE",,,
35121,35122,,"TRUE",,,
35128,35129,,"TRUE",,,
35132,35133,,"TRUE",,,
35133,10485,,"TRUE",,,
35134,35135,,"TRUE",,,
35140,35141,,"TRUE",,,
35146,35147,,"TRUE",,,
10506,10507,,"TRUE",,,
35159,35160,,"TRUE",,,
35166,35167,,"TRUE",,,
35168,35169,,"TRUE",,,
35178,35179,,"TRUE",,,
35182,35183,,"TRUE",,,
35191,35192,,"TRUE",,,
35193,35194,,"TRUE",,,
35195,35196,,"TRUE",,,
35211,35212,,"TRUE",,,
35217,35218,,"TRUE",,,
35220,35221,,"TRUE",,,
35233,35234,,"TRUE",,,
35235,35236,,"TRUE",,,
35237,35238,,"TRUE",,,
35241,35242,,"TRUE",,,
35244,35245,,"TRUE",,,
10579,10580,,"TRUE",,,
35247,35248,,"TRUE",,,
35249,35250,,"TRUE",,,
35253,35254,,"TRUE",,,
35264,35265,,"TRUE",,,
35266,35267,,"TRUE",,,
10614,35278,,"TRUE",,,
35284,35285,,"TRUE",,,
35299,35300,,"TRUE",,,
35302,35303,,"TRUE",,,
35304,35305,,"TRUE",,,
35313,35314,,"TRUE",,,
10648,10649,,"TRUE",,,
35345,35346,,"TRUE",,,
35350,10671,,"TRUE",,,
35355,35356,,"TRUE",,,
35373,35374,,"TRUE",,,
35391,35392,,"TRUE",,,
35396,35397,,"TRUE",,,
35407,35408,,"TRUE",,,
35410,35411,,"TRUE",,,
35419,35420,,"TRUE",,,
35429,35430,,"TRUE",,,
35430,35431,,"TRUE",,,
35431,35432,,"TRUE",,,
35433,35434,,"TRUE",,,
35437,35438,,"TRUE",,,
35449,35450,,"TRUE",,,
35452,35453,,"TRUE",,,
35454,35455,,"TRUE",,,
35460,35461,,"TRUE",,,
35472,35473,,"TRUE",,,
35473,10727,,"TRUE",,,
35499,35500,,"TRUE",,,
35518,35519,,"TRUE",,,
35520,35521,,"TRUE",,,
35524,35525,,"TRUE",,,
35535,35536,,"TRUE",,,
35536,35537,,"TRUE",,,
35544,35545,,"TRUE",,,
35553,35554,,"TRUE",,,
35562,35563,,"TRUE",,,
35567,35568,,"TRUE",,,
35571,35572,,"TRUE",,,
35573,35574,,"TRUE",,,
35575,35576,,"TRUE",,,
35581,35582,,"TRUE",,,
35583,35584,,"TRUE",,,
35611,35612,,"TRUE",,,
35623,35624,,"TRUE",,,
35633,35634,,"TRUE",,,
35642,35643,,"TRUE",,,
35645,35646,,"TRUE",,,
35647,35648,,"TRUE",,,
35649,10819,,"TRUE",,,
35660,35661,,"TRUE",,,
35674,35675,,"TRUE",,,
35684,35685,,"TRUE",,,
10844,10845,,"TRUE",,,
35692,35693,,"TRUE",,,
35695,35696,,"TRUE",,,
35697,35698,,"TRUE",,,
35702,35703,,"TRUE",,,
35704,35705,,"TRUE",,,
10859,35707,,"TRUE",,,
35708,35709,,"TRUE",,,
35717,35718,,"TRUE",,,
35718,35719,,"TRUE",,,
35728,35729,,"TRUE",,,
35731,35732,,"TRUE",,,
35734,35735,,"TRUE",,,
35736,35737,,"TRUE",,,
35754,35755,,"TRUE",,,
10897,10898,,"TRUE",,,
35775,10910,,"TRUE",,,
35778,35779,,"TRUE",,,
35784,10913,,"TRUE",,,
35802,35803,,"TRUE",,,
35822,35823,,"TRUE",,,
35829,35830,,"TRUE",,,
35830,10936,,"TRUE",,,
35831,35832,,"TRUE",,,
35836,35837,,"TRUE",,,
35841,35842,,"TRUE",,,
35851,35852,,"TRUE",,,
35866,35867,,"TRUE",,,
35884,35885,,"TRUE",,,
10981,10982,,"TRUE",,,
35893,35894,,"TRUE",,,
35907,35908,,"TRUE",,,
35913,35914,,"TRUE",,,
35915,35916,,"TRUE",,,
35917,10996,,"TRUE",,,
35926,35927,,"TRUE",,,
35935,35936,,"TRUE",,,
35937,35938,,"TRUE",,,
35942,35943,,"TRUE",,,
35944,35945,,"TRUE",,,
35958,35959,,"TRUE",,,
35962,35963,,"TRUE",,,
35968,35969,,"TRUE",,,
35978,35979,,"TRUE",,,
35983,35984,,"TRUE",,,
35985,35986,,"TRUE",,,
35988,35989,,"TRUE",,,
11046,11047,,"TRUE",,,
11049,11050,,"TRUE",,,
11050,11051,,"TRUE",,,
35993,35994,,"TRUE",,,
35996,35997,,"TRUE",,,
11055,36001,,"TRUE",,,
36003,11058,,"TRUE",,,
11064,36010,,"TRUE",,,
11066,11067,,"TRUE",,,
11067,36013,,"TRUE",,,
36013,36014,,"TRUE",,,
36018,36019,,"TRUE",,,
11071,11072,,"TRUE",,,
36031,11078,,"TRUE",,,
36038,36039,,"TRUE",,,
36040,36041,,"TRUE",,,
36043,36044,,"TRUE",,,
36046,36047,,"TRUE",,,
36048,36049,,"TRUE",,,
36058,36059,,"TRUE",,,
36078,36079,,"TRUE",,,
11119,11120,,"TRUE",,,
36087,36088,,"TRUE",,,
36099,36100,,"TRUE",,,
36107,36108,,"TRUE",,,
36109,36110,,"TRUE",,,
36119,36120,,"TRUE",,,
36129,36130,,"TRUE",,,
36144,36145,,"TRUE",,,
36156,36157,,"TRUE",,,
36162,36163,,"TRUE",,,
36207,36208,,"TRUE",,,
36213,36214,,"TRUE",,,
36216,36217,,"TRUE",,,
11238,11239,,"TRUE",,,
36223,36224,,"TRUE",,,
36248,36249,,"TRUE",,,
11266,11267,,"TRUE",,,
36276,36277,,"TRUE",,,
36278,36279,,"TRUE",,,
36284,36285,,"TRUE",,,
36298,36299,,"TRUE",,,
36302,36303,,"TRUE",,,
36332,36333,,"TRUE",,,
11303,36341,,"TRUE",,,
11306,36349,,"TRUE",,,
36350,36351,,"TRUE",,,
36361,36362,,"TRUE",,,
36363,36364,,"TRUE",,,
36367,36368,,"TRUE",,,
11318,11319,,"TRUE",,,
36370,36371,,"TRUE",,,
11339,11340,,"TRUE",,,
36390,11352,,"TRUE",,,
36393,36394,,"TRUE",,,
36413,36414,,"TRUE",,,
36428,36429,,"TRUE",,,
36437,36438,,"TRUE",,,
36439,36440,,"TRUE",,,
36462,36463,,"TRUE",,,
11434,11435,,"TRUE",,,
36486,36487,,"TRUE",,,
36498,36499,,"TRUE",,,
36500,36501,,"TRUE",,,
11455,11456,,"TRUE",,,
11458,11459,,"TRUE",,,
36508,36509,,"TRUE",,,
36530,36531,,"TRUE",,,
36532,36533,,"TRUE",,,
36536,36537,,"TRUE",,,
36548,36549,,"TRUE",,,
36557,36558,,"TRUE",,,
11496,36560,,"TRUE",,,
36562,36563,,"TRUE",,,
36568,36569,,"TRUE",,,
36570,36571,,"TRUE",,,
36575,36576,,"TRUE",,,
36586,36587,,"TRUE",,,
36588,36589,,"TRUE",,,
36589,36590,,"TRUE",,,
36595,36596,,"TRUE",,,
11525,11526,,"TRUE",,,
36600,36601,,"TRUE",,,
36602,36603,,"TRUE",,,
36620,36621,,"TRUE",,,
36647,36648,,"TRUE",,,
36661,36662,,"TRUE",,,
36668,36669,,"TRUE",,,
11580,36674,,"TRUE",,,
36674,36675,,"TRUE",,,
36677,36678,,"TRUE",,,
11581,11582,,"TRUE",,,
36689,36690,,"TRUE",,,
36690,36691,,"TRUE",,,
36698,36699,,"TRUE",,,
36701,36702,,"TRUE",,,
36709,36710,,"TRUE",,,
36712,36713,,"TRUE",,,
36714,36715,,"TRUE",,,
36727,11627,,"TRUE",,,
36729,36730,,"TRUE",,,
36731,36732,,"TRUE",,,
36737,36738,,"TRUE",,,
36740,36741,,"TRUE",,,
36750,36751,,"TRUE",,,
36756,36757,,"TRUE",,,
36762,36763,,"TRUE",,,
36782,36783,,"TRUE",,,
36787,36788,,"TRUE",,,
36798,36799,,"TRUE",,,
36812,36813,,"TRUE",,,
36817,36818,,"TRUE",,,
36821,36822,,"TRUE",,,
36825,36826,,"TRUE",,,
36827,36828,,"TRUE",,,
36841,36842,,"TRUE",,,
36853,36854,,"TRUE",,,
36857,36858,,"TRUE",,,
36859,36860,,"TRUE",,,
11717,11718,,"TRUE",,,
36863,36864,,"TRUE",,,
36866,36867,,"TRUE",,,
11724,36868,,"TRUE",,,
36869,36870,,"TRUE",,,
36872,11731,,"TRUE",,,
11732,11733,,"TRUE",,,"TRUE"
11741,36878,,"TRUE",,,
36880,36881,,"TRUE",,,
36886,36887,,"TRUE",,,
36891,36892,,"TRUE",,,
36897,36898,,"TRUE",,,
36907,36908,,"TRUE",,,
36912,36913,,"TRUE",,,
11777,36915,,"TRUE",,,
36926,36927,,"TRUE",,,
36933,36934,,"TRUE",,,
36939,36940,,"TRUE",,,
36953,11799,,"TRUE",,,
36958,36959,,"TRUE",,,
36963,36964,,"TRUE",,,
36968,11803,,"TRUE",,,
36975,36976,,"TRUE",,,
36982,36983,,"TRUE",,,
36989,36990,,"TRUE",,,
37000,37001,,"TRUE",,,
11813,11814,,"TRUE",,,
11820,37015,,"TRUE",,,
37022,37023,,"TRUE",,,
11828,37025,,"TRUE",,,
11829,37026,,"TRUE",,,
37027,37028,,"TRUE",,,
37029,37030,,"TRUE",,,
11833,11834,,"TRUE",,,
37035,37036,,"TRUE",,,
37037,37038,,"TRUE",,,
37039,37040,,"TRUE",,,
11845,11846,,"TRUE",,,
37053,37054,,"TRUE",,,
37058,37059,,"TRUE",,,
37065,37066,,"TRUE",,,
37070,37071,,"TRUE",,,
11866,37092,,"TRUE",,,
11875,37106,,"TRUE",,,
37111,37112,,"TRUE",,,
37113,11879,,"TRUE",,,
37115,37116,,"TRUE",,,
37119,37120,,"TRUE",,,
37127,37128,,"TRUE",,,
37134,37135,,"TRUE",,,
37138,37139,,"TRUE",,,
37143,37144,,"TRUE",,,
37164,37165,,"TRUE",,,
37175,37176,,"TRUE",,,
11922,11923,,"TRUE",,,
37179,37180,,"TRUE",,,
37183,37184,,"TRUE",,,
37190,11931,,"TRUE",,,
37199,37200,,"TRUE",,,
37209,37210,,"TRUE",,,
37224,37225,,"TRUE",,,
37230,37231,,"TRUE",,,
37234,37235,,"TRUE",,,
37238,37239,,"TRUE",,,
37245,37246,,"TRUE",,,
37247,37248,,"TRUE",,,
37248,37249,,"TRUE",,,
37253,37254,,"TRUE",,,
37257,37258,,"TRUE",,,
37259,11974,,"TRUE",,,
37271,37272,,"TRUE",,,
37275,37276,,"TRUE",,,
37278,37279,,"TRUE",,,
37292,37293,,"TRUE",,,
11994,11995,,"TRUE",,,
37294,37295,,"TRUE",,,
37296,37297,,"TRUE",,,
37304,37305,,"TRUE",,,
37306,37307,,"TRUE",,,
37309,37310,,"TRUE",,,
37322,37323,,"TRUE",,,
37337,37338,,"TRUE",,,
37339,37340,,"TRUE",,,
37347,37348,,"TRUE",,,
37350,37351,,"TRUE",,,
12036,37370,,"TRUE",,,
37370,37371,,"TRUE",,,
12037,12038,,"TRUE",,,
37375,37376,,"TRUE",,,
37381,37382,,"TRUE",,,
37388,37389,,"TRUE",,,
37390,37391,,"TRUE",,,
37392,37393,,"TRUE",,,
37394,12054,,"TRUE",,,
12061,12062,,"TRUE",,,
37404,37405,,"TRUE",,,
37406,37407,,"TRUE",,,
37409,37410,,"TRUE",,,
37434,37435,,"TRUE",,,
37448,37449,,"TRUE",,,
37453,37454,,"TRUE",,,
37464,37465,,"TRUE",,,
37481,37482,,"TRUE",,,
37497,37498,,"TRUE",,,
37499,37500,,"TRUE",,,
37501,37502,,"TRUE",,,
37514,37515,,"TRUE",,,
37516,37517,,"TRUE",,,
12136,12137,,"TRUE",,,
37533,37534,,"TRUE",,,
37537,37538,,"TRUE",,,
37553,37554,,"TRUE",,,
37558,37559,,"TRUE",,,
37565,37566,,"TRUE",,,
37569,37570,,"TRUE",,,
37595,37596,,"TRUE",,,
37599,37600,,"TRUE",,,
37612,37613,,"TRUE",,,
12203,12204,,"TRUE",,,
37619,37620,,"TRUE",,,
37622,37623,,"TRUE",,,
37628,37629,,"TRUE",,,
37642,37643,,"TRUE",,,
37647,37648,,"TRUE",,,
12246,37656,,"TRUE",,,
37658,37659,,"TRUE",,,
37661,37662,,"TRUE",,,
37665,37666,,"TRUE",,,
12251,12252,,"TRUE",,,
37673,37674,,"TRUE",,,
37676,37677,,"TRUE",,,
37683,37684,,"TRUE",,,
37689,37690,,"TRUE",,,
37708,37709,,"TRUE",,,
37712,37713,,"TRUE",,,
12315,12316,,"TRUE",,,
37738,12317,,"TRUE",,,
37741,37742,,"TRUE",,,
37749,37750,,"TRUE",,,
37750,37751,,"TRUE",,,
37751,37752,,"TRUE",,,
12326,12327,,"TRUE",,,
12351,12352,,"TRUE",,,
12357,37777,,"TRUE",,,
37779,37780,,"TRUE",,,
12364,37783,,"TRUE",,,
37787,37788,,"TRUE",,,
37791,37792,,"TRUE",,,
37803,37804,,"TRUE",,,
37809,37810,,"TRUE",,,
37812,37813,,"TRUE",,,
37829,37830,,"TRUE",,,
37837,37838,,"TRUE",,,
37840,37841,,"TRUE",,,
37853,37854,,"TRUE",,,
37859,37860,,"TRUE",,,
37861,37862,,"TRUE",,,
12415,12416,,"TRUE",,,
37871,37872,,"TRUE",,,
37875,37876,,"TRUE",,,
37886,37887,,"TRUE",,,
37888,37889,,"TRUE",,,
37889,37890,,"TRUE",,,
37907,37908,,"TRUE",,,
12460,37915,,"TRUE",,,
12472,12473,,"TRUE",,,
37930,37931,,"TRUE",,,
37937,37938,,"TRUE",,,
37947,37948,,"TRUE",,,
37960,37961,,"TRUE",,,
12500,12501,,"TRUE",,,
37963,37964,,"TRUE",,,
37967,37968,,"TRUE",,,
37971,37972,,"TRUE",,,
37991,37992,,"TRUE",,,
37995,37996,,"TRUE",,,
12525,38016,,"TRUE",,,
38024,38025,,"TRUE",,,
38034,38035,,"TRUE",,,
38036,38037,,"TRUE",,,
38049,38050,,"TRUE",,,
38057,38058,,"TRUE",,,
38061,38062,,"TRUE",,,
12571,12572,,"TRUE",,,
38075,38076,,"TRUE",,,
38082,38083,,"TRUE",,,
38087,38088,,"TRUE",,,
38089,38090,,"TRUE",,,
38106,38107,,"TRUE",,,
38114,38115,,"TRUE",,,
38116,38117,,"TRUE",,,
12598,12599,,"TRUE",,,
38137,38138,,"TRUE",,,
38146,12606,,"TRUE",,,
12606,12607,,"TRUE",,,
38147,38148,,"TRUE",,,
38150,12610,,"TRUE",,,
38160,38161,,"TRUE",,,
38167,38168,,"TRUE",,,
38177,38178,,"TRUE",,,
38181,38182,,"TRUE",,,
38208,38209,,"TRUE",,,
38212,38213,,"TRUE",,,
12658,12659,,"TRUE",,,
38232,38233,,"TRUE",,,
38236,38237,,"TRUE",,,
38248,38249,,"TRUE",,,
38253,38254,,"TRUE",,,
38268,38269,,"TRUE",,,
38273,38274,,"TRUE",,,
38306,38307,,"TRUE",,,
38307,38308,,"TRUE",,,
38308,38309,,"TRUE",,,
38310,38311,,"TRUE",,,
38314,38315,,"TRUE",,,
38320,38321,,"TRUE",,,
38347,38348,,"TRUE",,,
12781,12782,,"TRUE",,,
38363,38364,,"TRUE",,,
38364,12784,,"TRUE",,,
12784,12785,,"TRUE",,,
38368,38369,,"TRUE",,,
38372,38373,,"TRUE",,,
38374,38375,,"TRUE",,,
38381,38382,,"TRUE",,,
38383,38384,,"TRUE",,,
38389,38390,,"TRUE",,,
38393,38394,,"TRUE",,,
38398,38399,,"TRUE",,,
38402,38403,,"TRUE",,,
38421,38422,,"TRUE",,,
38425,12829,,"TRUE",,,
38436,38437,,"TRUE",,,
12855,38450,,"TRUE",,,
38452,38453,,"TRUE",,,
38456,12864,,"TRUE",,,
38462,38463,,"TRUE",,,
38464,38465,,"TRUE",,,
12866,38466,,"TRUE",,,
38467,12867,,"TRUE",,,
38477,38478,,"TRUE",,,
38480,38481,,"TRUE",,,
38489,38490,,"TRUE",,,
38492,38493,,"TRUE",,,
38503,38504,,"TRUE",,,
38522,38523,,"TRUE",,,
38525,38526,,"TRUE",,,
38532,38533,,"TRUE",,,
38534,38535,,"TRUE",,,
38537,38538,,"TRUE",,,
38546,38547,,"TRUE",,,
12929,38558,,"TRUE",,,
38559,38560,,"TRUE",,,
38568,38569,,"TRUE",,,
38594,38595,,"TRUE",,,
38603,38604,,"TRUE",,,
38608,38609,,"TRUE",,,
38613,38614,,"TRUE",,,
38616,38617,,"TRUE",,,
38619,38620,,"TRUE",,,
38630,38631,,"TRUE",,,
12967,38641,,"TRUE",,,
38652,38653,,"TRUE",,,
38655,38656,,"TRUE",,,
38667,38668,,"TRUE",,,
38679,38680,,"TRUE",,,
12992,12993,,"TRUE",,,
12993,38681,,"TRUE",,,
38685,38686,,"TRUE",,,
38689,12998,,"TRUE",,,
38695,38696,,"TRUE",,,
38696,38697,,"TRUE",,,
38708,13009,,"TRUE",,,
13010,13011,,"TRUE",,,
38720,38721,,"TRUE",,,
38721,38722,,"TRUE",,,
38724,38725,,"TRUE",,,
38741,38742,,"TRUE",,,
38749,38750,,"TRUE",,,
13048,38765,,"TRUE",,,
38770,38771,,"TRUE",,,
38771,38772,,"TRUE",,,
38772,38773,,"TRUE",,,
38776,38777,,"TRUE",,,
38795,38796,,"TRUE",,,
38797,38798,,"TRUE",,,
38805,38806,,"TRUE",,,
38818,38819,,"TRUE",,,
38829,38830,,"TRUE",,,
13092,13093,,"TRUE",,,
38835,38836,,"TRUE",,,
38847,38848,,"TRUE",,,
13104,38850,,"TRUE",,,
38855,38856,,"TRUE",,,
38857,38858,,"TRUE",,,
38859,38860,,"TRUE",,,
38895,38896,,"TRUE",,,
38918,38919,,"TRUE",,,
38921,38922,,"TRUE",,,
38943,13162,,"TRUE",,,
38946,38947,,"TRUE",,,
13166,13167,,"TRUE",,,
38952,38953,,"TRUE",,,
38956,38957,,"TRUE",,,
38967,38968,,"TRUE",,,
13186,38976,,"TRUE",,,
13216,13217,,"TRUE",,,
39008,39009,,"TRUE",,,
13232,13233,,"TRUE",,,
13237,13238,,"TRUE",,,
13238,39029,,"TRUE",,,
13249,39043,,"TRUE",,,
39048,13251,,"TRUE",,,
39066,39067,,"TRUE",,,
39077,39078,,"TRUE",,,
39085,39086,,"TRUE",,,
39089,39090,,"TRUE",,,
39094,39095,,"TRUE",,,
13275,39100,,"TRUE",,,
39124,39125,,"TRUE",,,
39132,39133,,"TRUE",,,
39144,39145,,"TRUE",,,
39147,39148,,"TRUE",,,
39150,39151,,"TRUE",,,
39167,39168,,"TRUE",,,
39178,39179,,"TRUE",,,
39182,39183,,"TRUE",,,
39194,39195,,"TRUE",,,
39203,39204,,"TRUE",,,
39217,39218,,"TRUE",,,
39234,39235,,"TRUE",,,
39242,39243,,"TRUE",,,
39254,39255,,"TRUE",,,
39255,39256,,"TRUE",,,
39258,39259,,"TRUE",,,
39268,39269,,"TRUE",,,
39276,39277,,"TRUE",,,
39285,39286,,"TRUE",,,
39293,39294,,"TRUE",,,
39295,39296,,"TRUE",,,
39301,39302,,"TRUE",,,
39320,13433,,"TRUE",,,
39323,13434,,"TRUE",,,
13434,39324,,"TRUE",,,
13441,13442,,"TRUE",,,
39335,39336,,"TRUE",,,
39350,39351,,"TRUE",,,
39352,39353,,"TRUE",,,
39354,39355,,"TRUE",,,
39356,39357,,"TRUE",,,
39359,39360,,"TRUE",,,
39362,39363,,"TRUE",,,
39390,39391,,"TRUE",,,
39393,39394,,"TRUE",,,
39398,39399,,"TRUE",,,
13474,13475,,"TRUE",,,
39409,39410,,"TRUE",,,
39413,39414,,"TRUE",,,
13486,39419,,"TRUE",,,
39432,39433,,"TRUE",,,
13505,13506,,"TRUE",,,
39445,39446,,"TRUE",,,
39469,39470,,"TRUE",,,
39474,39475,,"TRUE",,,
39480,39481,,"TRUE",,,
39484,39485,,"TRUE",,,
39497,39498,,"TRUE",,,
39501,39502,,"TRUE",,,
39506,39507,,"TRUE",,,
39516,39517,,"TRUE",,,
39531,39532,,"TRUE",,,
39553,39554,,"TRUE",,,
39568,39569,,"TRUE",,,
39580,39581,,"TRUE",,,
39597,39598,,"TRUE",,,
39620,39621,,"TRUE",,,
39623,39624,,"TRUE",,,
39637,39638,,"TRUE",,,
39640,39641,,"TRUE",,,
39646,39647,,"TRUE",,,
39650,39651,,"TRUE",,,
13611,39654,,"TRUE",,,
39656,39657,,"TRUE",,,
13612,13613,,"TRUE",,,
39659,39660,,"TRUE",,,
39667,39668,,"TRUE",,,
13623,13624,,"TRUE",,,
39704,39705,,"TRUE",,,
39710,39711,,"TRUE",,,
39712,39713,,"TRUE",,,
39717,39718,,"TRUE",,,
39723,13668,,"TRUE",,,
39726,39727,,"TRUE",,,
39734,39735,,"TRUE",,,
39738,39739,,"TRUE",,,
13685,13686,,"TRUE",,,
39743,39744,,"TRUE",,,
39748,39749,,"TRUE",,,
39753,39754,,"TRUE",,,
39758,39759,,"TRUE",,,
39760,39761,,"TRUE",,,
39763,39764,,"TRUE",,,
13707,13708,,"TRUE",,,
39778,39779,,"TRUE",,,
39782,39783,,"TRUE",,,
39787,39788,,"TRUE",,,
13716,13717,,"TRUE",,,
39795,39796,,"TRUE",,,
13727,13728,,"TRUE",,,
13734,13735,,"TRUE",,,
39830,39831,,"TRUE",,,
39839,39840,,"TRUE",,,
39840,13755,,"TRUE",,,
39846,39847,,"TRUE",,,
39848,39849,,"TRUE",,,
39853,39854,,"TRUE",,,
39854,39855,,"TRUE",,,
39855,39856,,"TRUE",,,
13767,39857,,"TRUE",,,
39868,39869,,"TRUE",,,
39886,39887,,"TRUE",,,
39888,39889,,"TRUE",,,
39896,39897,,"TRUE",,,
39898,13789,,"TRUE",,,
39899,39900,,"TRUE",,,
39903,39904,,"TRUE",,,
39916,39917,,"TRUE",,,
39932,39933,,"TRUE",,,
39937,39938,,"TRUE",,,
39941,39942,,"TRUE",,,
13827,13828,,"TRUE",,,
39954,39955,,"TRUE",,,
39955,39956,,"TRUE",,,
39958,39959,,"TRUE",,,
13840,13841,,"TRUE",,,
39967,39968,,"TRUE",,,
39972,39973,,"TRUE",,,
39976,39977,,"TRUE",,,
39978,39979,,"TRUE",,,
39980,39981,,"TRUE",,,
13855,13856,,"TRUE",,,
39987,39988,,"TRUE",,,
39990,39991,,"TRUE",,,
40005,40006,,"TRUE",,,
40008,40009,,"TRUE",,,
40012,40013,,"TRUE",,,
13887,13888,,"TRUE",,,
40030,40031,,"TRUE",,,
40032,40033,,"TRUE",,,
40042,40043,,"TRUE",,,
40048,40049,,"TRUE",,,
13910,40056,,"TRUE",,,
40057,40058,,"TRUE",,,
40060,40061,,"TRUE",,,
13916,13917,,"TRUE",,,
40065,40066,,"TRUE",,,
40067,40068,,"TRUE",,,
40071,40072,,"TRUE",,,
40079,40080,,"TRUE",,,
40089,40090,,"TRUE",,,
40091,40092,,"TRUE",,,
40101,40102,,"TRUE",,,
40103,40104,,"TRUE",,,
13954,40108,,"TRUE",,,
40114,13956,,"TRUE",,,
40115,40116,,"TRUE",,,
40120,40121,,"TRUE",,,
40136,40137,,"TRUE",,,
40137,40138,,"TRUE",,,
40138,40139,,"TRUE",,,
40156,13979,,"TRUE",,,
40166,40167,,"TRUE",,,
40168,40169,,"TRUE",,,
13985,13986,,"TRUE",,,
40177,40178,,"TRUE",,,
40184,13991,,"TRUE",,,
13999,40195,,"TRUE",,,
14002,40197,,"TRUE",,,
40202,40203,,"TRUE",,,
40205,40206,,"TRUE",,,
40215,40216,,"TRUE",,,
40219,40220,,"TRUE",,,
40231,40232,,"TRUE",,,
40241,40242,,"TRUE",,,
40246,40247,,"TRUE",,,
40252,14028,,"TRUE",,,
14040,40266,,"TRUE",,,
40277,40278,,"TRUE",,,
40284,40285,,"TRUE",,,
40290,40291,,"TRUE",,,
40297,40298,,"TRUE",,,
40300,40301,,"TRUE",,,
40303,40304,,"TRUE",,,
40306,40307,,"TRUE",,,
40308,40309,,"TRUE",,,
40323,40324,,"TRUE",,,
40324,40325,,"TRUE",,,
40339,40340,,"TRUE",,,
40349,40350,,"TRUE",,,
40359,40360,,"TRUE",,,
40360,40361,,"TRUE",,,
40362,40363,,"TRUE",,,
40364,40365,,"TRUE",,,
14090,40378,,"TRUE",,,
40381,40382,,"TRUE",,,
40385,40386,,"TRUE",,,
40387,40388,,"TRUE",,,
14093,14094,,"TRUE",,,
40390,40391,,"TRUE",,,
40414,40415,,"TRUE",,,
40427,40428,,"TRUE",,,
40448,40449,,"TRUE",,,
40450,40451,,"TRUE",,,
14145,14146,,"TRUE",,,
40492,40493,,"TRUE",,,
40495,40496,,"TRUE",,,
40502,40503,,"TRUE",,,
40516,40517,,"TRUE",,,
40528,40529,,"TRUE",,,
40537,40538,,"TRUE",,,
40539,40540,,"TRUE",,,
14237,14238,,"TRUE",,,
40575,40576,,"TRUE",,,
14268,14269,,"TRUE",,,
14276,40590,,"TRUE",,,
40591,40592,,"TRUE",,,
40596,40597,,"TRUE",,,
40603,40604,,"TRUE",,,
40605,14287,,"TRUE",,,
40620,40621,,"TRUE",,,
40633,40634,,"TRUE",,,
40639,14310,,"TRUE",,,
14313,40641,,"TRUE",,,
40648,40649,,"TRUE",,,
40649,40650,,"TRUE",,,
40650,40651,,"TRUE",,,
40662,14342,,"TRUE",,,
40666,40667,,"TRUE",,,
14349,14350,,"TRUE",,,
40694,40695,,"TRUE",,,
40707,40708,,"TRUE",,,
40709,40710,,"TRUE",,,
40719,40720,,"TRUE",,,
14387,40728,,"TRUE",,,
40745,14399,,"TRUE",,,
40761,40762,,"TRUE",,,
40770,40771,,"TRUE",,,
40781,40782,,"TRUE",,,
40785,40786,,"TRUE",,,
40796,40797,,"TRUE",,,
40802,40803,,"TRUE",,,
40811,40812,,"TRUE",,,
40825,40826,,"TRUE",,,
40829,40830,,"TRUE",,,
40832,40833,,"TRUE",,,
40840,40841,,"TRUE",,,
40859,40860,,"TRUE",,,
40865,40866,,"TRUE",,,
40869,40870,,"TRUE",,,
40885,40886,,"TRUE",,,
40898,40899,,"TRUE",,,
40900,40901,,"TRUE",,,
40902,14525,,"TRUE",,,
14527,14528,,"TRUE",,,
40917,40918,,"TRUE",,,
40924,40925,,"TRUE",,,
40926,40927,,"TRUE",,,
40928,40929,,"TRUE",,,
40934,40935,,"TRUE",,,
40936,14552,,"TRUE",,,
40941,40942,,"TRUE",,,
40967,40968,,"TRUE",,,
40969,40970,,"TRUE",,,
40971,40972,,"TRUE",,,
40980,40981,,"TRUE",,,
40986,40987,,"TRUE",,,
40988,40989,,"TRUE",,,
40994,40995,,"TRUE",,,
41005,41006,,"TRUE",,,
41008,41009,,"TRUE",,,
41022,41023,,"TRUE",,,
41030,41031,,"TRUE",,,
41038,41039,,"TRUE",,,
41045,41046,,"TRUE",,,
41051,41052,,"TRUE",,,
41056,41057,,"TRUE",,,
41058,41059,,"TRUE",,,
41066,41067,,"TRUE",,,
41070,41071,,"TRUE",,,
14642,14643,,"TRUE",,,
41080,41081,,"TRUE",,,
41108,41109,,"TRUE",,,
41111,41112,,"TRUE",,,
41113,41114,,"TRUE",,,
14687,14688,,"TRUE",,,
14691,14692,,"TRUE",,,
41137,41138,,"TRUE",,,
41143,41144,,"TRUE",,,
41149,41150,,"TRUE",,,
41153,41154,,"TRUE",,,
14705,14706,,"TRUE",,,
14725,41163,,"TRUE",,,
41163,14726,,"TRUE",,,
41165,41166,,"TRUE",,,
41171,41172,,"TRUE",,,
14734,14735,,"TRUE",,,
14747,14748,,"TRUE",,,
14749,41183,,"TRUE",,,
41184,41185,,"TRUE",,,
41189,41190,,"TRUE",,,
41205,41206,,"TRUE",,,
41209,41210,,"TRUE",,,
41229,41230,,"TRUE",,,
41230,41231,,"TRUE",,,
41231,41232,,"TRUE",,,
41238,41239,,"TRUE",,,
41263,14802,,"TRUE",,,
41277,41278,,"TRUE",,,
41285,41286,,"TRUE",,,
41287,41288,,"TRUE",,,
14820,41291,,"TRUE",,,
41300,41302,,"TRUE",,,
41307,41308,,"TRUE",,,
41311,41312,,"TRUE",,,
14844,41323,,"TRUE",,,
41327,14849,,"TRUE",,,
41331,41332,,"TRUE",,,
41355,41356,,"TRUE",,,
41360,14896,,"TRUE",,,
41366,41367,,"TRUE",,,
41368,41369,,"TRUE",,,
41373,41374,,"TRUE",,,
14915,41381,,"TRUE",,,
14916,41384,,"TRUE",,,
14928,14929,,"TRUE",,,
41404,41405,,"TRUE",,,
41406,41407,,"TRUE",,,
41408,41409,,"TRUE",,,
14958,14959,,"TRUE",,,
41434,41435,,"TRUE",,,
41472,41473,,"TRUE",,,
15052,15053,,"TRUE",,,
41482,41483,,"TRUE",,,
15063,15064,,"TRUE",,,
41498,41499,,"TRUE",,,
41500,15071,,"TRUE",,,
41511,41512,,"TRUE",,,
41528,15088,,"TRUE",,,
15090,15091,,"TRUE",,,
15099,15100,,"TRUE",,,
41536,41537,,"TRUE",,,
41540,41541,,"TRUE",,,
41543,41544,,"TRUE",,,
41544,41545,,"TRUE",,,
41545,41546,,"TRUE",,,
41552,41553,,"TRUE",,,
41559,41560,,"TRUE",,,
41565,41566,,"TRUE",,,
41601,41602,,"TRUE",,,
41620,41621,,"TRUE",,,
41632,41633,,"TRUE",,,
15158,41649,,"TRUE",,,
41655,41656,,"TRUE",,,
41657,41658,,"TRUE",,,
41661,41662,,"TRUE",,,
41662,41663,,"TRUE",,,
41664,41665,,"TRUE",,,
15170,15171,,"TRUE",,,
41678,41679,,"TRUE",,,
41680,41681,,"TRUE",,,
15179,15180,,"TRUE",,,
41690,41691,,"TRUE",,,
15189,41696,,"TRUE",,,
41701,41702,,"TRUE",,,
41720,41721,,"TRUE",,,
15215,15216,,"TRUE",,,
41726,41727,,"TRUE",,,
41728,41729,,"TRUE",,,
41736,41737,,"TRUE",,,
41743,41744,,"TRUE",,,
41745,15235,,"TRUE",,,
15241,15242,,"TRUE",,,
41751,41752,,"TRUE",,,
41757,41758,,"TRUE",,,
41759,41760,,"TRUE",,,
41772,41773,,"TRUE",,,
41777,41778,,"TRUE",,,
41786,41787,,"TRUE",,,
41803,41804,,"TRUE",,,
41808,41809,,"TRUE",,,
41815,41816,,"TRUE",,,
41828,41829,,"TRUE",,,
41843,41844,,"TRUE",,,
41868,41869,,"TRUE",,,
41874,41875,,"TRUE",,,
41876,41877,,"TRUE",,,
41883,41884,,"TRUE",,,
41885,15340,,"TRUE",,,
41889,41890,,"TRUE",,,
41896,41897,,"TRUE",,,
41902,41903,,"TRUE",,,
41906,41907,,"TRUE",,,
41914,41915,,"TRUE",,,
41937,41938,,"TRUE",,,
41945,41946,,"TRUE",,,
41951,41952,,"TRUE",,,
41965,41966,,"TRUE",,,
41968,41969,,"TRUE",,,
15406,41980,,"TRUE",,,
41997,15425,,"TRUE",,,
41999,42000,,"TRUE",,,
42004,42005,,"TRUE",,,
15436,42020,,"TRUE",,,
42038,42039,,"TRUE",,,
42049,42050,,"TRUE",,,
15476,15477,,"TRUE",,,
15478,15479,,"TRUE",,,
42070,42071,,"TRUE",,,
42078,42079,,"TRUE",,,
42080,42081,,"TRUE",,,
42092,42093,,"TRUE",,,
42100,42101,,"TRUE",,,
42109,42110,,"TRUE",,,
42112,42113,,"TRUE",,,
42115,42116,,"TRUE",,,
42120,42121,,"TRUE",,,
42128,42129,,"TRUE",,,
42135,42136,,"TRUE",,,
15560,42148,,"TRUE",,,
42150,42151,,"TRUE",,,
15565,42158,,"TRUE",,,
42159,42160,,"TRUE",,,
42161,42162,,"TRUE",,,
42163,42164,,"TRUE",,,
42169,42170,,"TRUE",,,
42172,42173,,"TRUE",,,
42174,42175,,"TRUE",,,
42183,42184,,"TRUE",,,
42188,42189,,"TRUE",,,
42190,42191,,"TRUE",,,
42201,42202,,"TRUE",,,
15605,15606,,"TRUE",,,
15623,15624,,"TRUE",,,
42224,42225,,"TRUE",,,
42251,42252,,"TRUE",,,
15646,42255,,"TRUE",,,
42280,42281,,"TRUE",,,
42297,42298,,"TRUE",,,
42308,42309,,"TRUE",,,
42314,42315,,"TRUE",,,
42316,42317,,"TRUE",,,
42338,42339,,"TRUE",,,
15719,15720,,"TRUE",,,
42343,42344,,"TRUE",,,
42346,42347,,"TRUE",,,
42349,42350,,"TRUE",,,
42358,42359,,"TRUE",,,
42367,42368,,"TRUE",,,
15734,15735,,"TRUE",,,
42374,42375,,"TRUE",,,
42383,42384,,"TRUE",,,
42390,42391,,"TRUE",,,
42393,42394,,"TRUE",,,
42394,15763,,"TRUE",,,
15776,42415,,"TRUE",,,
42415,42416,,"TRUE",,,
42427,42428,,"TRUE",,,
42429,42430,,"TRUE",,,
42434,42435,,"TRUE",,,
42442,42443,,"TRUE",,,
15806,15807,,"TRUE",,,
42457,42458,,"TRUE",,,
42466,42467,,"TRUE",,,
42478,42479,,"TRUE",,,
42481,42482,,"TRUE",,,
42487,42488,,"TRUE",,,
42489,42490,,"TRUE",,,
42492,42493,,"TRUE",,,
42499,42500,,"TRUE",,,
42503,42504,,"TRUE",,,
42534,42535,,"TRUE",,,
42535,42536,,"TRUE",,,
42550,42551,,"TRUE",,,
15873,15874,,"TRUE",,,
42564,42565,,"TRUE",,,
42566,42567,,"TRUE",,,
42578,42579,,"TRUE",,,
42598,42599,,"TRUE",,,
42602,42603,,"TRUE",,,
15903,42620,,"TRUE",,,
42623,42624,,"TRUE",,,
42630,42631,,"TRUE",,,
42636,42637,,"TRUE",,,
42638,15922,,"TRUE",,,
42642,42643,,"TRUE",,,
42650,42651,,"TRUE",,,
42655,42656,,"TRUE",,,
42657,42658,,"TRUE",,,
42664,15937,,"TRUE",,,
42670,42671,,"TRUE",,,
42674,42675,,"TRUE",,,
42678,15949,,"TRUE",,,
42684,42685,,"TRUE",,,
42704,42705,,"TRUE",,,
42705,15959,,"TRUE",,,
42729,42730,,"TRUE",,,
42732,42733,,"TRUE",,,
42739,42740,,"TRUE",,,
15976,15977,,"TRUE",,,
42756,42757,,"TRUE",,,
42763,42764,,"TRUE",,,
42770,42771,,"TRUE",,,
15998,42782,,"TRUE",,,
42783,42784,,"TRUE",,,
16000,42785,,"TRUE",,,
42786,42787,,"TRUE",,,
42794,42795,,"TRUE",,,
42801,42802,,"TRUE",,,
16009,16010,,"TRUE",,,
16011,16012,,"TRUE",,,
42808,42809,,"TRUE",,,
42827,42828,,"TRUE",,,
42840,42841,,"TRUE",,,
16031,42845,,"TRUE",,,
42845,42846,,"TRUE",,,
42852,42853,,"TRUE",,,
16041,16042,,"TRUE",,,
42868,42869,,"TRUE",,,
16044,16045,,"TRUE",,,
42882,42883,,"TRUE",,,
42886,42887,,"TRUE",,,
42892,42893,,"TRUE",,,
42896,42897,,"TRUE",,,
42900,42901,,"TRUE",,,
42902,42903,,"TRUE",,,
42914,42915,,"TRUE",,,
16068,16069,,"TRUE",,,
42935,42936,,"TRUE",,,
42937,42938,,"TRUE",,,
42939,42940,,"TRUE",,,
42948,42949,,"TRUE",,,
42965,42966,,"TRUE",,,
42966,42967,,"TRUE",,,
42972,42973,,"TRUE",,,
42976,16109,,"TRUE",,,
42981,42982,,"TRUE",,,
42997,42998,,"TRUE",,,
42999,43000,,"TRUE",,,
43007,43008,,"TRUE",,,
43016,43017,,"TRUE",,,
43018,43019,,"TRUE",,,
43025,43026,,"TRUE",,,
43030,43031,,"TRUE",,,
43032,43033,,"TRUE",,,
16163,16164,,"TRUE",,,
43060,43061,,"TRUE",,,
16179,16180,,"TRUE",,,
16188,16189,,"TRUE",,,
43079,43080,,"TRUE",,,
43082,16202,,"TRUE",,,
43086,43087,,"TRUE",,,
43093,43094,,"TRUE",,,
43095,43096,,"TRUE",,,
43112,43113,,"TRUE",,,
43118,43119,,"TRUE",,,
43132,43133,,"TRUE",,,
43134,16230,,"TRUE",,,
16231,16232,,"TRUE",,,
43139,43140,,"TRUE",,,
43141,43142,,"TRUE",,,
43144,43145,,"TRUE",,,
16250,43158,,"TRUE",,,
43161,16251,,"TRUE",,,
43169,43170,,"TRUE",,,
43185,16276,,"TRUE",,,
16277,16278,,"TRUE",,,
43192,43193,,"TRUE",,,
43194,43195,,"TRUE",,,
43218,43219,,"TRUE",,,
43225,43226,,"TRUE",,,
16297,16298,,"TRUE",,,
16304,43227,,"TRUE",,,
16311,16312,,"TRUE",,,
43234,43235,,"TRUE",,,
43237,43238,,"TRUE",,,
43241,43242,,"TRUE",,,
16336,16337,,"TRUE",,,
43258,43259,,"TRUE",,,
43262,43263,,"TRUE",,,
16368,43270,,"TRUE",,,
43270,43271,,"TRUE",,,
43280,43281,,"TRUE",,,
43282,43283,,"TRUE",,,
43285,43286,,"TRUE",,,
43294,43295,,"TRUE",,,
16391,16392,,"TRUE",,,
16401,16402,,"TRUE",,,
43330,43331,,"TRUE",,,
43336,43337,,"TRUE",,,
43345,43346,,"TRUE",,,
43372,43373,,"TRUE",,,
43398,43399,,"TRUE",,,
43409,43410,,"TRUE",,,
16493,16494,,"TRUE",,,
43422,43423,,"TRUE",,,
43426,43427,,"TRUE",,,
43432,43433,,"TRUE",,,
43438,43439,,"TRUE",,,
16542,43450,,"TRUE",,,
43455,43456,,"TRUE",,,
43463,43464,,"TRUE",,,
43472,43473,,"TRUE",,,
43477,43478,,"TRUE",,,
43493,43494,,"TRUE",,,
43495,43496,,"TRUE",,,
43501,43502,,"TRUE",,,
16579,16580,,"TRUE",,,
43515,43516,,"TRUE",,,
43526,43527,,"TRUE",,,
43548,43549,,"TRUE",,,
43551,43552,,"TRUE",,,
16598,16599,,"TRUE",,,
43557,43558,,"TRUE",,,
43560,43561,,"TRUE",,,
43562,43563,,"TRUE",,,
16610,43568,,"TRUE",,,
43574,43575,,"TRUE",,,
43576,43577,,"TRUE",,,
43578,16615,,"TRUE",,,
43591,43592,,"TRUE",,,
16628,16629,,"TRUE",,,
16634,43606,,"TRUE",,,
43609,43610,,"TRUE",,,
43621,43622,,"TRUE",,,
16648,43631,,"TRUE",,,
43647,43648,,"TRUE",,,
43650,43651,,"TRUE",,,
43664,43665,,"TRUE",,,
43669,43670,,"TRUE",,,
43679,43680,,"TRUE",,,
43689,43690,,"TRUE",,,
43694,43695,,"TRUE",,,
43697,43698,,"TRUE",,,
43722,43723,,"TRUE",,,
43726,43727,,"TRUE",,,
43729,16696,,"TRUE",,,
43736,43737,,"TRUE",,,
16716,16717,,"TRUE",,,
43758,16738,,"TRUE",,,
43768,43769,,"TRUE",,,
43774,16753,,"TRUE",,,
16755,43779,,"TRUE",,,
43781,43782,,"TRUE",,,
43784,43785,,"TRUE",,,
16769,43796,,"TRUE",,,
16776,16777,,"TRUE",,,
16777,43805,,"TRUE",,,
43805,43806,,"TRUE",,,
43807,43808,,"TRUE",,,
16778,43810,,"TRUE",,,
43812,43813,,"TRUE",,,
43823,43824,,"TRUE",,,
16798,16799,,"TRUE",,,
43833,43834,,"TRUE",,,
43841,43842,,"TRUE",,,
43846,43847,,"TRUE",,,
43853,43854,,"TRUE",,,
43875,43876,,"TRUE",,,
43877,43878,,"TRUE",,,
43890,43891,,"TRUE",,,
43896,43897,,"TRUE",,,
43907,43908,,"TRUE",,,
43912,43913,,"TRUE",,,
43922,43923,,"TRUE",,,
43926,43927,,"TRUE",,,
43928,43929,,"TRUE",,,
43934,43935,,"TRUE",,,
16854,16855,,"TRUE",,,
43939,43940,,"TRUE",,,
16861,16862,,"TRUE",,,
16881,16882,,"TRUE",,,
16883,43948,,"TRUE",,,
16885,16886,,"TRUE",,,
16889,16890,,"TRUE",,,
43963,43964,,"TRUE",,,
43973,43974,,"TRUE",,,
16902,43982,,"TRUE",,,
43994,16915,,"TRUE",,,
44002,44003,,"TRUE",,,
44007,44008,,"TRUE",,,
44013,44014,,"TRUE",,,
44035,44036,,"TRUE",,,
44051,44052,,"TRUE",,,
44065,44066,,"TRUE",,,
44077,44078,,"TRUE",,,
44079,44080,,"TRUE",,,
44093,16962,,"TRUE",,,
44098,44099,,"TRUE",,,
44123,44124,,"TRUE",,,
44131,44132,,"TRUE",,,
16993,16994,,"TRUE",,,
44140,44141,,"TRUE",,,
44147,44148,,"TRUE",,,
44157,44158,,"TRUE",,,
44166,44167,,"TRUE",,,
44168,44169,,"TRUE",,,
44184,44185,,"TRUE",,,
44214,44215,,"TRUE",,,
44236,44237,,"TRUE",,,
44238,44239,,"TRUE",,,
17047,17048,,"TRUE",,,
44262,44263,,"TRUE",,,
17059,17060,,"TRUE",,,
17062,17063,,"TRUE",,,
44292,44293,,"TRUE",,,
44297,44298,,"TRUE",,,
44302,44303,,"TRUE",,,
44310,44311,,"TRUE",,,
44317,44318,,"TRUE",,,
44323,44324,,"TRUE",,,
44328,44329,,"TRUE",,,
17090,44333,,"TRUE",,,
44337,44338,,"TRUE",,,
44341,44342,,"TRUE",,,
17105,17106,,"TRUE",,,
44374,44375,,"TRUE",,,
44388,44389,,"TRUE",,,
44451,44452,,"TRUE",,,
44453,44454,,"TRUE",,,
44472,17182,,"TRUE",,,
44476,17185,,"TRUE",,,
17196,44489,,"TRUE",,,
44515,44516,,"TRUE",,,
17225,17226,,"TRUE",,,
44519,44520,,"TRUE",,,
44521,44522,,"TRUE",,,
44528,44529,,"TRUE",,,
44537,44538,,"TRUE",,,
44539,44540,,"TRUE",,,
44543,44544,,"TRUE",,,
44546,44547,,"TRUE",,,
44551,44552,,"TRUE",,,
44553,17240,,"TRUE",,,
17243,44558,,"TRUE",,,
44574,44575,,"TRUE",,,
44576,44577,,"TRUE",,,
44601,44602,,"TRUE",,,
44604,44605,,"TRUE",,,
44612,44613,,"TRUE",,,
44623,44624,,"TRUE",,,
44649,44650,,"TRUE",,,
17353,44667,,"TRUE",,,
44681,17368,,"TRUE",,,
44683,44684,,"TRUE",,,
44685,17374,,"TRUE",,,
44709,44710,,"TRUE",,,
44730,44731,,"TRUE",,,
44740,44741,,"TRUE",,,
44747,44748,,"TRUE",,,
44756,44757,,"TRUE",,,
17441,17442,,"TRUE",,,
17449,17450,,"TRUE",,,
44782,44783,,"TRUE",,,
17454,44784,,"TRUE",,,
44795,44796,,"TRUE",,,
44809,44810,,"TRUE",,,
44812,44813,,"TRUE",,,
44821,44822,,"TRUE",,,
44823,44824,,"TRUE",,,
44825,44826,,"TRUE",,,
44827,44828,,"TRUE",,,
44833,17497,,"TRUE",,,
17497,17498,,"TRUE",,,
44848,44849,,"TRUE",,,
44853,44854,,"TRUE",,,
44855,44856,,"TRUE",,,
44866,44867,,"TRUE",,,
44872,44873,,"TRUE",,,
44888,44889,,"TRUE",,,
44893,44894,,"TRUE",,,
44897,44898,,"TRUE",,,
44914,17550,,"TRUE",,,
44918,44919,,"TRUE",,,
44920,44921,,"TRUE",,,
44931,44932,,"TRUE",,,
44935,44936,,"TRUE",,,
44951,44952,,"TRUE",,,
44952,44953,,"TRUE",,,
44953,44954,,"TRUE",,,
44955,44956,,"TRUE",,,
44958,44959,,"TRUE",,,
44965,44966,,"TRUE",,,
44983,44984,,"TRUE",,,
44985,44986,,"TRUE",,,
44995,44996,,"TRUE",,,
45006,45007,,"TRUE",,,
45010,45011,,"TRUE",,,
45013,45014,,"TRUE",,,
45019,45020,,"TRUE",,,
45026,45027,,"TRUE",,,
45035,45036,,"TRUE",,,
45037,45038,,"TRUE",,,
45042,45043,,"TRUE",,,
45044,45045,,"TRUE",,,
17643,17644,,"TRUE",,,
45062,45063,,"TRUE",,,
45071,45072,,"TRUE",,,
45077,45078,,"TRUE",,,
45085,45086,,"TRUE",,,
45088,45089,,"TRUE",,,
45097,45098,,"TRUE",,,
45105,45106,,"TRUE",,,
45107,45108,,"TRUE",,,
45112,45113,,"TRUE",,,
17675,17676,,"TRUE",,,
45122,45123,,"TRUE",,,
45127,45128,,"TRUE",,,
17694,17695,,"TRUE",,,
45135,45136,,"TRUE",,,
45140,17697,,"TRUE",,,
45147,45148,,"TRUE",,,
45177,17721,,"TRUE",,,
17722,45179,,"TRUE",,,
45190,45191,,"TRUE",,,
45195,45196,,"TRUE",,,
45213,45214,,"TRUE",,,
45227,45228,,"TRUE",,,
17759,17760,,"TRUE",,,
45239,17763,,"TRUE",,,
45245,17764,,"TRUE",,,
45246,17767,,"TRUE",,,
45256,45257,,"TRUE",,,
45279,45280,,"TRUE",,,
45287,45289,,"TRUE",,,
45291,45292,,"TRUE",,,
45305,45306,,"TRUE",,,
17801,17802,,"TRUE",,,
45360,45361,,"TRUE",,,
45367,45368,,"TRUE",,,
45384,45385,,"TRUE",,,
45390,45391,,"TRUE",,,
45393,17833,,"TRUE",,,
45397,45398,,"TRUE",,,
45399,17837,,"TRUE",,,
45401,45402,,"TRUE",,,
45403,17841,,"TRUE",,,
45432,45433,,"TRUE",,,
45437,45438,,"TRUE",,,
45443,17869,,"TRUE",,,
45470,45471,,"TRUE",,,
45483,17881,,"TRUE",,,
45509,45510,,"TRUE",,,
17897,17898,,"TRUE",,,
45516,45517,,"TRUE",,,
45521,45522,,"TRUE",,,
45531,45532,,"TRUE",,,
45534,45535,,"TRUE",,,
45536,45537,,"TRUE",,,
17917,45542,,"TRUE",,,
45555,45556,,"TRUE",,,
17930,45565,,"TRUE",,,
17932,45567,,"TRUE",,,
45577,45578,,"TRUE",,,
45585,45586,,"TRUE",,,
45590,45591,,"TRUE",,,
45593,17950,,"TRUE",,,
45596,45597,,"TRUE",,,
45598,45599,,"TRUE",,,
45601,17958,,"TRUE",,,
45602,45603,,"TRUE",,,
17960,45606,,"TRUE",,,
45609,45610,,"TRUE",,,
45620,45621,,"TRUE",,,
45652,17979,,"TRUE",,,
45657,45658,,"TRUE",,,
45663,45664,,"TRUE",,,
45670,45671,,"TRUE",,,
45680,45681,,"TRUE",,,
45695,45696,,"TRUE",,,
45700,45701,,"TRUE",,,
45705,45706,,"TRUE",,,
45714,18033,,"TRUE",,,
45732,45733,,"TRUE",,,
45734,45735,,"TRUE",,,
45746,45747,,"TRUE",,,
45754,45755,,"TRUE",,,
18059,18060,,"TRUE",,,
45758,45759,,"TRUE",,,
45761,45762,,"TRUE",,,
45763,45764,,"TRUE",,,
45764,45765,,"TRUE",,,
45774,45776,,"TRUE",,,
45787,45788,,"TRUE",,,
45790,45791,,"TRUE",,,
45791,45792,,"TRUE",,,
45803,45804,,"TRUE",,,
45814,45815,,"TRUE",,,
45815,45816,,"TRUE",,,
18089,18090,,"TRUE",,,
18090,18091,,"TRUE",,,
45826,45827,,"TRUE",,,
45828,45829,,"TRUE",,,
45834,45835,,"TRUE",,,
45855,45856,,"TRUE",,,
45863,45864,,"TRUE",,,
45866,45867,,"TRUE",,,
18133,18134,,"TRUE",,,
18137,45882,,"TRUE",,,
45884,45885,,"TRUE",,,
45886,45887,,"TRUE",,,
18143,18144,,"TRUE",,,
18152,45894,,"TRUE",,,
45904,45905,,"TRUE",,,
45908,18169,,"TRUE",,,
45915,45916,,"TRUE",,,
45919,18177,,"TRUE",,,
45923,45924,,"TRUE",,,
45926,45927,,"TRUE",,,
45936,45937,,"TRUE",,,
45937,45938,,"TRUE",,,
45942,45943,,"TRUE",,,
45952,45953,,"TRUE",,,
45962,45963,,"TRUE",,,
45964,45965,,"TRUE",,,
45969,45970,,"TRUE",,,
45976,45977,,"TRUE",,,
45978,18226,,"TRUE",,,
45984,18229,,"TRUE",,,
45990,18233,,"TRUE",,,
45992,18234,,"TRUE",,,
45993,45994,,"TRUE",,,
18256,46009,,"TRUE",,,
46013,46014,,"TRUE",,,
18259,46015,,"TRUE",,,
46021,46022,,"TRUE",,,
46026,46027,,"TRUE",,,
46028,46029,,"TRUE",,,
46042,46043,,"TRUE",,,
46047,46048,,"TRUE",,,
46050,18280,,"TRUE",,,
18283,18284,,"TRUE",,,
46058,46059,,"TRUE",,,
46064,46065,,"TRUE",,,
46099,46100,,"TRUE",,,
46104,46105,,"TRUE",,,
46143,46144,,"TRUE",,,
46145,46146,,"TRUE",,,
46159,18342,,"TRUE",,,
46172,46173,,"TRUE",,,
46180,46181,,"TRUE",,,
46182,46183,,"TRUE",,,
46188,46189,,"TRUE",,,
46194,18358,,"TRUE",,,
46195,46196,,"TRUE",,,
46212,46213,,"TRUE",,,
46231,46232,,"TRUE",,,
46234,46235,,"TRUE",,,
46235,46236,,"TRUE",,,
18391,18392,,"TRUE",,,
46246,18402,,"TRUE",,,
18409,46254,,"TRUE",,,
46258,46259,,"TRUE",,,
46260,46261,,"TRUE",,,
46270,46271,,"TRUE",,,
46277,46278,,"TRUE",,,
46304,46305,,"TRUE",,,
46324,46325,,"TRUE",,,
46334,46335,,"TRUE",,,
46343,46344,,"TRUE",,,
46355,46356,,"TRUE",,,
46386,46387,,"TRUE",,,
46388,46389,,"TRUE",,,
46397,46398,,"TRUE",,,
46399,46400,,"TRUE",,,
46403,46404,,"TRUE",,,
46406,46407,,"TRUE",,,
46408,46409,,"TRUE",,,
46413,46414,,"TRUE",,,
18517,18518,,"TRUE",,,
21742,21741,,,"TRUE",,
26334,26333,,,"TRUE",,
29831,6792,,,"TRUE",,
30079,30078,,,"TRUE",,
34050,34049,,,"TRUE",,
35619,10798,,,"TRUE",,
37433,37432,,,"TRUE",,
44858,17515,,,"TRUE",,
44915,17553,,,"TRUE",,
45732,18047,,,"TRUE",,
45859,45858,,,"TRUE",,
45887,18140,,,"TRUE",,
46067,18295,,,"TRUE",,
37012,11817,,,,"TRUE",
3654,25267,,,,"TRUE",
36890,11753,,,,"TRUE",
30719,7472,,,,"TRUE",
356,357,,,,"TRUE",
41683,41684,,,,"TRUE",
37466,37467,,,,"TRUE",
29329,29330,,,,"TRUE",
31073,31074,,,,"TRUE",
24597,24598,,,,"TRUE",
12058,12059,,,,"TRUE",
2630,2631,,,,"TRUE",
33549,33550,,,,"TRUE",
29753,29754,,,,"TRUE",
25044,25045,,,,"TRUE",
25057,25058,,,,"TRUE",
28721,28722,,,,"TRUE",
28726,28727,,,,"TRUE",
29270,29271,,,,"TRUE",
30021,30022,,,,"TRUE",
32335,32336,,,,"TRUE",
35104,35105,,,,"TRUE",
36032,36033,,,,"TRUE",
36643,36644,,,,"TRUE",
37136,37137,,,,"TRUE",
45125,45126,,,,"TRUE",
45349,45350,,,,"TRUE",
31365,31366,,,,"TRUE",
45200,45201,,,,"TRUE",
37201,37202,,,,"TRUE",
39994,39995,,,,"TRUE",
9934,9935,,,,"TRUE",
10977,10978,,,,"TRUE",
17308,17309,,,,"TRUE",
992,993,,,,"TRUE",
14,15,,,,,"TRUE"
4314,4315,,,,,"TRUE"
4797,4798,,,,,"TRUE"
6624,6625,,,,,"TRUE"
8634,32277,,,,,"TRUE"
9065,9066,,,,,"TRUE"
10787,35585,,,,,"TRUE"
12604,12605,,,,,"TRUE"
13066,13067,,,,,"TRUE"
13340,13341,,,,,"TRUE"
14328,14329,,,,,"TRUE"
15557,42137,,,,,"TRUE"
15591,42193,,,,,"TRUE"
15774,42410,,,,,"TRUE"
16962,44094,,,,,"TRUE"
17122,44386,,,,,"TRUE"
17323,44640,,,,,"TRUE"
17442,44775,,,,,"TRUE"
18009,18010,,,,,"TRUE"
18134,45872,,,,,"TRUE"
22511,22512,,,,,"TRUE"
22519,22520,,,,,"TRUE"
22653,22654,,,,,"TRUE"
24140,24141,,,,,"TRUE"
27562,27563,,,,,"TRUE"
28571,28572,,,,,"TRUE"
28631,28632,,,,,"TRUE"
28809,6177,,,,,"TRUE"
30654,30655,,,,,"TRUE"
32871,32872,,,,,"TRUE"
36009,11062,,,,,"TRUE"
36233,11254,,,,,"TRUE"
37439,37440,,,,,"TRUE"
37560,37561,,,,,"TRUE"
39811,13740,,,,,"TRUE"
40558,14223,,,,,"TRUE"
42736,42737,,,,,"TRUE"
43222,16295,,,,,"TRUE"
45025,17625,,,,,"TRUE"
45439,17865,,,,,"TRUE"
46269,18418,,,,,"TRUE"
