probe.id,ref_like_prefix,insertion_after_prefix,insertion_before_suffix,ref_like_suffix,side,strand
8570,TCAGGCTGGGGGAGGGGAGACTACA,,,ACATACCTTTGGGCATGTCAACAGG,end,+
8571,,,GACTAAGACAGGAGGGGAGACTACA,ACATACCTTTGGGCATGTCAACAGG,end,+
14658,CACTATTTTGTAGGAAGAATAATCA,GCGAATGTGGGGGCGGCTCCCAACA,,,end,+
15502,GGATAATCACACCAAATCAGCCTTG,GCAAATGTGAGGGCGGCTCCCAACA,,,end,+
19577,,,TGTTGCGGCCGCCAGCAGCTCGCAA,GTGCAATGGTTTGTCATCTGGTGGG,end,+
22160,,,AACCAGGAATAACCACTACActgac,ACTCTCACCCATCAGAAGTCGTGCC,end,+
22161,CTGGCCGGACACAACAGACACTGAC,TGTATTAGTCAGGGTTCTCTAGAGT,,,start,+
22162,CTGGCCGGACACAACAGACACTGAC,,,ACTCTCACCCATCAGAAGTCGTGCC,start,+
22163,CTGGCCGGACACAACAGACAGTGAC,TTCTTTCTGTGTATTCTCTATGGCA,,,start,+
30322,AAAGGGGAAACGCATAATGTAGAAC,GCAAATGTGAGGGCGGCTCCCAACA,,,end,+
37037,,,TGTATTAGTCAGGGTTCTCTAGAGT,TTTCTGTGGATTTGTCTATCCTGGT,end,+
37857,AAAGATCACAAGCCAATTCTCAATT,GCAAATGTGAGGGCGGCTCCCAACA,,,end,+
38358,GTGTGTCAACTTGACACAAGCTGGA,,,GTGTGTCAACTTGACACAAGCTGGA,start,+
38359,CTAGCTACCTGTACTGGCTGATTTT,,,GTGTGTCAACTTGGCACAAGCTGGA,start,+
44287,CATATCACTATCTGGAAAAGACTAG,GCAAATGTGAGGGCGGCTCCCCACA,,,end,+
45956,GGCAAGGAAGACATGACTATGATCC,GCAAATGTGAGGGCGGCTCCCAACA,,,end,+
48452,CCCTTCAAACCATAACTCCATGTAT,GCGAATGTGAGGGCGGCTTCCCACA,,,end,+
60450,GTCCACAAGGAATAATACAGTTTCT,ACTGCCGCCACACCCGCTCCCCACA,,,end,+
60489,GAAAACGAACCTTTTAGATGTCTAG,ACTGCCGCCACACCCGCTCCCCACA,,,end,+
68324,,,AGGAATAGAAACCCTGACTAAGACA,AATGGCTTTGTCTGAAAGTCATTTA,end,+
71575,TAGCTGTATCAGTCAGAGATCTTTG,ACTGCCGCCACACCCGCTCCCCACA,,,end,+
80999,TTAAATCATCTTTCTTCCACCCCCA,ACTGCCGCCACACCCGCTCCCCACA,,,end,+
82313,CTAATTCAACCACAGGCTTCTGCCC,ACTGCCGCCACACCCGCTCCCCACA,,,end,+
83241,GTGGACTTTATATATGCATTCTTTC,ACTGCCGCCACACCCGCTCCCCACA,,,end,+
83464,GTTCAGGTCCCTGGAATCTCTGAAG,ACTGCCGCCACACCTGCTCCTAACA,,,end,+
85234,ATTATTTATTTTATTTATTTCTGCA,ACTGCCACCACACCCGCTCCCCACA,,,end,+
86704,AGGCTTTATCACAGGTGCTGCTGTG,ACTGCCGCCACACCTGCTCCTAACA,,,end,+
90808,CTAATAACAAAAATCAGCCAGTACA,,,GGTAGCTAGCTGCATTCTGGGGAGA,end,-
92784,CCTGCTGGCTGAGAGAGGCCAACAA,ACTGCCGCCACACCCGCTCCCCACA,,,end,+
96323,TAAGCCTGATTTGTTTTATTGATAA,ACTGCCGCCACACCCGCTCCCCACA,,,end,+
100122,GTGCCCAGCCTCTCTTACCTGTAGT,ACTGCCGCCACACCCGCTCCCCACA,,,end,+
100957,TGTGGGACTTTTGGTTTGGGTTTTT,ACTGCCGCCACACCCGCTCCCCACA,,,end,+
101843,AGTTTTCATGCCAGTTGTGTAATGT,ACTGCCGCCACACCCGCTCCCCACA,,,end,+
64641,CCAAAGCCTTTCCTAACATAATCCT,,,TGTACTGGCTAATTTTGTGTCAACT,start,+
5926,AATCCTCTTCCTCCAACTACCATGT,,,TGTAGGAAGCCGCCCTCACATTCGC,end,+
73690,GAATGTCTCCTACATCATCCCAAAC,,,TGTTAGGAGCGGGTGTGGCGGCAGT,end,+