# PAC one that missed the other rounds
p63148 change t
p63150 change t
p63151 change t
p63150 remove
p63151 remove
p63152 remove
t21981 merge 21980
t21982 merge 21980

#Below are ones anwica provided
p60764 remove
t20485 merge 336

p73648 remove
t28541 merge 6050

p25398 change t
p25399 change t
t32640 merge 8840	

p36870 remove
t12863 merge 12862	

t16608 merge 16607	

t45813 merge 45812	