dist.next,TEi.id,TEi.2,strand.x,pop2.sdp.x,chr,tei.sides.covered.x,seed1.x,seed2.x,strand.y,pop2.sdp.y,tei.sides.covered.y,seed1.y,seed2.y,pairs.on.seperate.sides,same.orientation,compatible.sdp,B6,group.type,min.tei,max.tei,merge.set,group.id,c.seeds.1,c.seeds.2
3,34413,34414,+,A00000100,2,START,MTA_mm,NA,+,A11111N11,BOTH,MTA_mm,,FALSE,TRUE,FALSE,TRUE,"same orientation, but incompatible SDPs",34413,34414,34413-34414,4294,,MTA_mm
17,22653,22654,+,A00000010,10,START,MTA_mm,NA,+,A11111111,BOTH,MTA_mm,NA,FALSE,TRUE,FALSE,TRUE,"same orientation, but incompatible SDPs",22653,22654,22653-22654,19011,MTA_mm,NA
13,25975,25976,-,A11111111,12,END,MTA_mm,,-,AN1N1NN1N,START,MTA_mm,,TRUE,TRUE,TRUE,TRUE,"same orientation, compatible SDPs, in B, and TEis only on seperate sides.",25975,25976,25975-25976,23357,,MTA_mm
36,4655,26664,-,A10000000,13,BOTH,MERVL_LTR,NA,-,A11111111,BOTH,MTA_mm,,FALSE,TRUE,FALSE,TRUE,"same orientation, but incompatible SDPs",4655,26664,4655-26664,24289,,MERVL_LTR
6,27306,27307,-,AN11N111N,13,END,MTA_mm,,-,AN11N111N,END,MTA_mm,NA,FALSE,TRUE,TRUE,TRUE,"same orientation, compatible SDPs, and in B6",27306,27307,27306-27307,25177,,MTA_mm
45,7665,7666,-,A00010000,17,BOTH,RLTR1IAP_MM,NA,-,A10101000,BOTH,RLTR1IAP_MM,NA,FALSE,TRUE,FALSE,FALSE,"same orientation, but incompatible SDPs",7665,7666,7665-7666,30033,RLTR1IAP_MM,NA
5,31166,31167,+,A11111111,17,START,MTA_mm,,+,A11111111,BOTH,MTA_mm,NA,FALSE,TRUE,TRUE,TRUE,"same orientation, compatible SDPs, and in B6",31166,31167,31166-31167,30279,,MTA_mm
33,31472,31473,+,A111N1NN1,17,END,MTA_mm,,+,A11111111,END,MTA_mm,NA,FALSE,TRUE,TRUE,TRUE,"same orientation, compatible SDPs, and in B6",31472,31473,31472-31473,30711,,MTA_mm